%YAML 1.1
%TAG !u! tag:unity3d.com,2011:
--- !u!1 &101638
GameObject:
  m_ObjectHideFlags: 1
  m_CorrespondingSourceObject: {fileID: 0}
  m_PrefabInternal: {fileID: 100100000}
  serializedVersion: 6
  m_Component:
  - component: {fileID: 404624}
  m_Layer: 0
  m_Name: mixamorig:LeftHandRing2
  m_TagString: Untagged
  m_Icon: {fileID: 0}
  m_NavMeshLayer: 0
  m_StaticEditorFlags: 0
  m_IsActive: 1
--- !u!1 &102186
GameObject:
  m_ObjectHideFlags: 1
  m_CorrespondingSourceObject: {fileID: 0}
  m_PrefabInternal: {fileID: 100100000}
  serializedVersion: 6
  m_Component:
  - component: {fileID: 450594}
  m_Layer: 0
  m_Name: mixamorig:LeftHandMiddle3
  m_TagString: Untagged
  m_Icon: {fileID: 0}
  m_NavMeshLayer: 0
  m_StaticEditorFlags: 0
  m_IsActive: 1
--- !u!1 &105116
GameObject:
  m_ObjectHideFlags: 1
  m_CorrespondingSourceObject: {fileID: 0}
  m_PrefabInternal: {fileID: 100100000}
  serializedVersion: 6
  m_Component:
  - component: {fileID: 423616}
  m_Layer: 0
  m_Name: mixamorig:RightEye
  m_TagString: Untagged
  m_Icon: {fileID: 0}
  m_NavMeshLayer: 0
  m_StaticEditorFlags: 0
  m_IsActive: 1
--- !u!1 &108252
GameObject:
  m_ObjectHideFlags: 1
  m_CorrespondingSourceObject: {fileID: 0}
  m_PrefabInternal: {fileID: 100100000}
  serializedVersion: 6
  m_Component:
  - component: {fileID: 494450}
  m_Layer: 0
  m_Name: mixamorig:LeftFoot
  m_TagString: Untagged
  m_Icon: {fileID: 0}
  m_NavMeshLayer: 0
  m_StaticEditorFlags: 0
  m_IsActive: 1
--- !u!1 &111100
GameObject:
  m_ObjectHideFlags: 0
  m_CorrespondingSourceObject: {fileID: 0}
  m_PrefabInternal: {fileID: 100100000}
  serializedVersion: 6
  m_Component:
  - component: {fileID: 424310}
  - component: {fileID: 13714040}
  m_Layer: 0
  m_Name: Shoes
  m_TagString: Untagged
  m_Icon: {fileID: 0}
  m_NavMeshLayer: 0
  m_StaticEditorFlags: 0
  m_IsActive: 1
--- !u!1 &111202
GameObject:
  m_ObjectHideFlags: 1
  m_CorrespondingSourceObject: {fileID: 0}
  m_PrefabInternal: {fileID: 100100000}
  serializedVersion: 6
  m_Component:
  - component: {fileID: 477230}
  m_Layer: 0
  m_Name: mixamorig:RightHandThumb1
  m_TagString: Untagged
  m_Icon: {fileID: 0}
  m_NavMeshLayer: 0
  m_StaticEditorFlags: 0
  m_IsActive: 1
--- !u!1 &112086
GameObject:
  m_ObjectHideFlags: 1
  m_CorrespondingSourceObject: {fileID: 0}
  m_PrefabInternal: {fileID: 100100000}
  serializedVersion: 6
  m_Component:
  - component: {fileID: 443008}
  m_Layer: 0
  m_Name: mixamorig:LeftHandThumb3
  m_TagString: Untagged
  m_Icon: {fileID: 0}
  m_NavMeshLayer: 0
  m_StaticEditorFlags: 0
  m_IsActive: 1
--- !u!1 &112400
GameObject:
  m_ObjectHideFlags: 1
  m_CorrespondingSourceObject: {fileID: 0}
  m_PrefabInternal: {fileID: 100100000}
  serializedVersion: 6
  m_Component:
  - component: {fileID: 433860}
  m_Layer: 0
  m_Name: mixamorig:LeftHandThumb4
  m_TagString: Untagged
  m_Icon: {fileID: 0}
  m_NavMeshLayer: 0
  m_StaticEditorFlags: 0
  m_IsActive: 1
--- !u!1 &113068
GameObject:
  m_ObjectHideFlags: 1
  m_CorrespondingSourceObject: {fileID: 0}
  m_PrefabInternal: {fileID: 100100000}
  serializedVersion: 6
  m_Component:
  - component: {fileID: 474890}
  m_Layer: 0
  m_Name: mixamorig:RightHandMiddle1
  m_TagString: Untagged
  m_Icon: {fileID: 0}
  m_NavMeshLayer: 0
  m_StaticEditorFlags: 0
  m_IsActive: 1
--- !u!1 &114206
GameObject:
  m_ObjectHideFlags: 1
  m_CorrespondingSourceObject: {fileID: 0}
  m_PrefabInternal: {fileID: 100100000}
  serializedVersion: 6
  m_Component:
  - component: {fileID: 491802}
  m_Layer: 0
  m_Name: mixamorig:LeftToe_End
  m_TagString: Untagged
  m_Icon: {fileID: 0}
  m_NavMeshLayer: 0
  m_StaticEditorFlags: 0
  m_IsActive: 1
--- !u!1 &114502
GameObject:
  m_ObjectHideFlags: 1
  m_CorrespondingSourceObject: {fileID: 0}
  m_PrefabInternal: {fileID: 100100000}
  serializedVersion: 6
  m_Component:
  - component: {fileID: 474934}
  m_Layer: 0
  m_Name: mixamorig:LeftHandIndex2
  m_TagString: Untagged
  m_Icon: {fileID: 0}
  m_NavMeshLayer: 0
  m_StaticEditorFlags: 0
  m_IsActive: 1
--- !u!1 &116774
GameObject:
  m_ObjectHideFlags: 1
  m_CorrespondingSourceObject: {fileID: 0}
  m_PrefabInternal: {fileID: 100100000}
  serializedVersion: 6
  m_Component:
  - component: {fileID: 477844}
  m_Layer: 0
  m_Name: mixamorig:RightHandMiddle3
  m_TagString: Untagged
  m_Icon: {fileID: 0}
  m_NavMeshLayer: 0
  m_StaticEditorFlags: 0
  m_IsActive: 1
--- !u!1 &117822
GameObject:
  m_ObjectHideFlags: 1
  m_CorrespondingSourceObject: {fileID: 0}
  m_PrefabInternal: {fileID: 100100000}
  serializedVersion: 6
  m_Component:
  - component: {fileID: 489594}
  m_Layer: 0
  m_Name: mixamorig:RightHandRing1
  m_TagString: Untagged
  m_Icon: {fileID: 0}
  m_NavMeshLayer: 0
  m_StaticEditorFlags: 0
  m_IsActive: 1
--- !u!1 &118418
GameObject:
  m_ObjectHideFlags: 0
  m_CorrespondingSourceObject: {fileID: 0}
  m_PrefabInternal: {fileID: 100100000}
  serializedVersion: 6
  m_Component:
  - component: {fileID: 442198}
  - component: {fileID: 11452462}
  - component: {fileID: 11172230}
  m_Layer: 0
  m_Name: PlayerStefani
  m_TagString: Untagged
  m_Icon: {fileID: 0}
  m_NavMeshLayer: 0
  m_StaticEditorFlags: 0
  m_IsActive: 1
--- !u!1 &118932
GameObject:
  m_ObjectHideFlags: 1
  m_CorrespondingSourceObject: {fileID: 0}
  m_PrefabInternal: {fileID: 100100000}
  serializedVersion: 6
  m_Component:
  - component: {fileID: 490280}
  m_Layer: 0
  m_Name: mixamorig:RightHandPinky3
  m_TagString: Untagged
  m_Icon: {fileID: 0}
  m_NavMeshLayer: 0
  m_StaticEditorFlags: 0
  m_IsActive: 1
--- !u!1 &121292
GameObject:
  m_ObjectHideFlags: 1
  m_CorrespondingSourceObject: {fileID: 0}
  m_PrefabInternal: {fileID: 100100000}
  serializedVersion: 6
  m_Component:
  - component: {fileID: 413572}
  m_Layer: 0
  m_Name: mixamorig:RightHandIndex1
  m_TagString: Untagged
  m_Icon: {fileID: 0}
  m_NavMeshLayer: 0
  m_StaticEditorFlags: 0
  m_IsActive: 1
--- !u!1 &121612
GameObject:
  m_ObjectHideFlags: 1
  m_CorrespondingSourceObject: {fileID: 0}
  m_PrefabInternal: {fileID: 100100000}
  serializedVersion: 6
  m_Component:
  - component: {fileID: 423108}
  m_Layer: 0
  m_Name: mixamorig:RightHandMiddle4
  m_TagString: Untagged
  m_Icon: {fileID: 0}
  m_NavMeshLayer: 0
  m_StaticEditorFlags: 0
  m_IsActive: 1
--- !u!1 &124782
GameObject:
  m_ObjectHideFlags: 1
  m_CorrespondingSourceObject: {fileID: 0}
  m_PrefabInternal: {fileID: 100100000}
  serializedVersion: 6
  m_Component:
  - component: {fileID: 432640}
  m_Layer: 0
  m_Name: mixamorig:LeftHandMiddle2
  m_TagString: Untagged
  m_Icon: {fileID: 0}
  m_NavMeshLayer: 0
  m_StaticEditorFlags: 0
  m_IsActive: 1
--- !u!1 &125640
GameObject:
  m_ObjectHideFlags: 1
  m_CorrespondingSourceObject: {fileID: 0}
  m_PrefabInternal: {fileID: 100100000}
  serializedVersion: 6
  m_Component:
  - component: {fileID: 401014}
  m_Layer: 0
  m_Name: mixamorig:LeftHandRing1
  m_TagString: Untagged
  m_Icon: {fileID: 0}
  m_NavMeshLayer: 0
  m_StaticEditorFlags: 0
  m_IsActive: 1
--- !u!1 &126992
GameObject:
  m_ObjectHideFlags: 1
  m_CorrespondingSourceObject: {fileID: 0}
  m_PrefabInternal: {fileID: 100100000}
  serializedVersion: 6
  m_Component:
  - component: {fileID: 405592}
  m_Layer: 0
  m_Name: mixamorig:LeftHandRing4
  m_TagString: Untagged
  m_Icon: {fileID: 0}
  m_NavMeshLayer: 0
  m_StaticEditorFlags: 0
  m_IsActive: 1
--- !u!1 &127222
GameObject:
  m_ObjectHideFlags: 1
  m_CorrespondingSourceObject: {fileID: 0}
  m_PrefabInternal: {fileID: 100100000}
  serializedVersion: 6
  m_Component:
  - component: {fileID: 410672}
  m_Layer: 0
  m_Name: mixamorig:LeftHandIndex1
  m_TagString: Untagged
  m_Icon: {fileID: 0}
  m_NavMeshLayer: 0
  m_StaticEditorFlags: 0
  m_IsActive: 1
--- !u!1 &129498
GameObject:
  m_ObjectHideFlags: 1
  m_CorrespondingSourceObject: {fileID: 0}
  m_PrefabInternal: {fileID: 100100000}
  serializedVersion: 6
  m_Component:
  - component: {fileID: 413944}
  m_Layer: 0
  m_Name: mixamorig:LeftLeg
  m_TagString: Untagged
  m_Icon: {fileID: 0}
  m_NavMeshLayer: 0
  m_StaticEditorFlags: 0
  m_IsActive: 1
--- !u!1 &130576
GameObject:
  m_ObjectHideFlags: 1
  m_CorrespondingSourceObject: {fileID: 0}
  m_PrefabInternal: {fileID: 100100000}
  serializedVersion: 6
  m_Component:
  - component: {fileID: 468176}
  m_Layer: 0
  m_Name: mixamorig:RightHandThumb3
  m_TagString: Untagged
  m_Icon: {fileID: 0}
  m_NavMeshLayer: 0
  m_StaticEditorFlags: 0
  m_IsActive: 1
--- !u!1 &132210
GameObject:
  m_ObjectHideFlags: 1
  m_CorrespondingSourceObject: {fileID: 0}
  m_PrefabInternal: {fileID: 100100000}
  serializedVersion: 6
  m_Component:
  - component: {fileID: 449642}
  m_Layer: 0
  m_Name: mixamorig:LeftEye
  m_TagString: Untagged
  m_Icon: {fileID: 0}
  m_NavMeshLayer: 0
  m_StaticEditorFlags: 0
  m_IsActive: 1
--- !u!1 &135878
GameObject:
  m_ObjectHideFlags: 1
  m_CorrespondingSourceObject: {fileID: 0}
  m_PrefabInternal: {fileID: 100100000}
  serializedVersion: 6
  m_Component:
  - component: {fileID: 451372}
  m_Layer: 0
  m_Name: mixamorig:RightToeBase
  m_TagString: Untagged
  m_Icon: {fileID: 0}
  m_NavMeshLayer: 0
  m_StaticEditorFlags: 0
  m_IsActive: 1
--- !u!1 &137504
GameObject:
  m_ObjectHideFlags: 1
  m_CorrespondingSourceObject: {fileID: 0}
  m_PrefabInternal: {fileID: 100100000}
  serializedVersion: 6
  m_Component:
  - component: {fileID: 460132}
  m_Layer: 0
  m_Name: mixamorig:LeftShoulder
  m_TagString: Untagged
  m_Icon: {fileID: 0}
  m_NavMeshLayer: 0
  m_StaticEditorFlags: 0
  m_IsActive: 1
--- !u!1 &137508
GameObject:
  m_ObjectHideFlags: 1
  m_CorrespondingSourceObject: {fileID: 0}
  m_PrefabInternal: {fileID: 100100000}
  serializedVersion: 6
  m_Component:
  - component: {fileID: 428896}
  m_Layer: 0
  m_Name: mixamorig:LeftUpLeg
  m_TagString: Untagged
  m_Icon: {fileID: 0}
  m_NavMeshLayer: 0
  m_StaticEditorFlags: 0
  m_IsActive: 1
--- !u!1 &140470
GameObject:
  m_ObjectHideFlags: 1
  m_CorrespondingSourceObject: {fileID: 0}
  m_PrefabInternal: {fileID: 100100000}
  serializedVersion: 6
  m_Component:
  - component: {fileID: 444304}
  m_Layer: 0
  m_Name: mixamorig:LeftArm
  m_TagString: Untagged
  m_Icon: {fileID: 0}
  m_NavMeshLayer: 0
  m_StaticEditorFlags: 0
  m_IsActive: 1
--- !u!1 &141260
GameObject:
  m_ObjectHideFlags: 1
  m_CorrespondingSourceObject: {fileID: 0}
  m_PrefabInternal: {fileID: 100100000}
  serializedVersion: 6
  m_Component:
  - component: {fileID: 475192}
  m_Layer: 0
  m_Name: mixamorig:LeftHandPinky2
  m_TagString: Untagged
  m_Icon: {fileID: 0}
  m_NavMeshLayer: 0
  m_StaticEditorFlags: 0
  m_IsActive: 1
--- !u!1 &142678
GameObject:
  m_ObjectHideFlags: 1
  m_CorrespondingSourceObject: {fileID: 0}
  m_PrefabInternal: {fileID: 100100000}
  serializedVersion: 6
  m_Component:
  - component: {fileID: 469894}
  m_Layer: 0
  m_Name: mixamorig:LeftHandPinky3
  m_TagString: Untagged
  m_Icon: {fileID: 0}
  m_NavMeshLayer: 0
  m_StaticEditorFlags: 0
  m_IsActive: 1
--- !u!1 &144304
GameObject:
  m_ObjectHideFlags: 1
  m_CorrespondingSourceObject: {fileID: 0}
  m_PrefabInternal: {fileID: 100100000}
  serializedVersion: 6
  m_Component:
  - component: {fileID: 422674}
  m_Layer: 0
  m_Name: mixamorig:LeftHandThumb1
  m_TagString: Untagged
  m_Icon: {fileID: 0}
  m_NavMeshLayer: 0
  m_StaticEditorFlags: 0
  m_IsActive: 1
--- !u!1 &145102
GameObject:
  m_ObjectHideFlags: 0
  m_CorrespondingSourceObject: {fileID: 0}
  m_PrefabInternal: {fileID: 100100000}
  serializedVersion: 6
  m_Component:
  - component: {fileID: 425334}
  - component: {fileID: 13702376}
  m_Layer: 0
  m_Name: Body
  m_TagString: Untagged
  m_Icon: {fileID: 0}
  m_NavMeshLayer: 0
  m_StaticEditorFlags: 0
  m_IsActive: 1
--- !u!1 &145762
GameObject:
  m_ObjectHideFlags: 1
  m_CorrespondingSourceObject: {fileID: 0}
  m_PrefabInternal: {fileID: 100100000}
  serializedVersion: 6
  m_Component:
  - component: {fileID: 465238}
  m_Layer: 0
  m_Name: mixamorig:LeftForeArm
  m_TagString: Untagged
  m_Icon: {fileID: 0}
  m_NavMeshLayer: 0
  m_StaticEditorFlags: 0
  m_IsActive: 1
--- !u!1 &145900
GameObject:
  m_ObjectHideFlags: 0
  m_CorrespondingSourceObject: {fileID: 0}
  m_PrefabInternal: {fileID: 100100000}
  serializedVersion: 6
  m_Component:
  - component: {fileID: 474464}
  - component: {fileID: 13780644}
  m_Layer: 0
  m_Name: Hair
  m_TagString: Untagged
  m_Icon: {fileID: 0}
  m_NavMeshLayer: 0
  m_StaticEditorFlags: 0
  m_IsActive: 1
--- !u!1 &146754
GameObject:
  m_ObjectHideFlags: 1
  m_CorrespondingSourceObject: {fileID: 0}
  m_PrefabInternal: {fileID: 100100000}
  serializedVersion: 6
  m_Component:
  - component: {fileID: 481464}
  m_Layer: 0
  m_Name: mixamorig:RightHandRing2
  m_TagString: Untagged
  m_Icon: {fileID: 0}
  m_NavMeshLayer: 0
  m_StaticEditorFlags: 0
  m_IsActive: 1
--- !u!1 &149906
GameObject:
  m_ObjectHideFlags: 1
  m_CorrespondingSourceObject: {fileID: 0}
  m_PrefabInternal: {fileID: 100100000}
  serializedVersion: 6
  m_Component:
  - component: {fileID: 416318}
  m_Layer: 0
  m_Name: mixamorig:Spine2
  m_TagString: Untagged
  m_Icon: {fileID: 0}
  m_NavMeshLayer: 0
  m_StaticEditorFlags: 0
  m_IsActive: 1
--- !u!1 &149958
GameObject:
  m_ObjectHideFlags: 1
  m_CorrespondingSourceObject: {fileID: 0}
  m_PrefabInternal: {fileID: 100100000}
  serializedVersion: 6
  m_Component:
  - component: {fileID: 493804}
  m_Layer: 0
  m_Name: mixamorig:RightHand
  m_TagString: Untagged
  m_Icon: {fileID: 0}
  m_NavMeshLayer: 0
  m_StaticEditorFlags: 0
  m_IsActive: 1
--- !u!1 &151402
GameObject:
  m_ObjectHideFlags: 1
  m_CorrespondingSourceObject: {fileID: 0}
  m_PrefabInternal: {fileID: 100100000}
  serializedVersion: 6
  m_Component:
  - component: {fileID: 496556}
  m_Layer: 0
  m_Name: mixamorig:LeftHandIndex4
  m_TagString: Untagged
  m_Icon: {fileID: 0}
  m_NavMeshLayer: 0
  m_StaticEditorFlags: 0
  m_IsActive: 1
--- !u!1 &151858
GameObject:
  m_ObjectHideFlags: 1
  m_CorrespondingSourceObject: {fileID: 0}
  m_PrefabInternal: {fileID: 100100000}
  serializedVersion: 6
  m_Component:
  - component: {fileID: 439936}
  m_Layer: 0
  m_Name: mixamorig:LeftHand
  m_TagString: Untagged
  m_Icon: {fileID: 0}
  m_NavMeshLayer: 0
  m_StaticEditorFlags: 0
  m_IsActive: 1
--- !u!1 &152426
GameObject:
  m_ObjectHideFlags: 1
  m_CorrespondingSourceObject: {fileID: 0}
  m_PrefabInternal: {fileID: 100100000}
  serializedVersion: 6
  m_Component:
  - component: {fileID: 400726}
  m_Layer: 0
  m_Name: mixamorig:LeftHandMiddle4
  m_TagString: Untagged
  m_Icon: {fileID: 0}
  m_NavMeshLayer: 0
  m_StaticEditorFlags: 0
  m_IsActive: 1
--- !u!1 &152642
GameObject:
  m_ObjectHideFlags: 1
  m_CorrespondingSourceObject: {fileID: 0}
  m_PrefabInternal: {fileID: 100100000}
  serializedVersion: 6
  m_Component:
  - component: {fileID: 432420}
  m_Layer: 0
  m_Name: mixamorig:RightHandIndex4
  m_TagString: Untagged
  m_Icon: {fileID: 0}
  m_NavMeshLayer: 0
  m_StaticEditorFlags: 0
  m_IsActive: 1
--- !u!1 &155498
GameObject:
  m_ObjectHideFlags: 1
  m_CorrespondingSourceObject: {fileID: 0}
  m_PrefabInternal: {fileID: 100100000}
  serializedVersion: 6
  m_Component:
  - component: {fileID: 485166}
  m_Layer: 0
  m_Name: mixamorig:RightHandMiddle2
  m_TagString: Untagged
  m_Icon: {fileID: 0}
  m_NavMeshLayer: 0
  m_StaticEditorFlags: 0
  m_IsActive: 1
--- !u!1 &159524
GameObject:
  m_ObjectHideFlags: 1
  m_CorrespondingSourceObject: {fileID: 0}
  m_PrefabInternal: {fileID: 100100000}
  serializedVersion: 6
  m_Component:
  - component: {fileID: 477630}
  m_Layer: 0
  m_Name: mixamorig:RightHandIndex2
  m_TagString: Untagged
  m_Icon: {fileID: 0}
  m_NavMeshLayer: 0
  m_StaticEditorFlags: 0
  m_IsActive: 1
--- !u!1 &160554
GameObject:
  m_ObjectHideFlags: 1
  m_CorrespondingSourceObject: {fileID: 0}
  m_PrefabInternal: {fileID: 100100000}
  serializedVersion: 6
  m_Component:
  - component: {fileID: 427256}
  m_Layer: 0
  m_Name: mixamorig:LeftHandPinky1
  m_TagString: Untagged
  m_Icon: {fileID: 0}
  m_NavMeshLayer: 0
  m_StaticEditorFlags: 0
  m_IsActive: 1
--- !u!1 &161300
GameObject:
  m_ObjectHideFlags: 1
  m_CorrespondingSourceObject: {fileID: 0}
  m_PrefabInternal: {fileID: 100100000}
  serializedVersion: 6
  m_Component:
  - component: {fileID: 426806}
  m_Layer: 0
  m_Name: mixamorig:RightHandThumb4
  m_TagString: Untagged
  m_Icon: {fileID: 0}
  m_NavMeshLayer: 0
  m_StaticEditorFlags: 0
  m_IsActive: 1
--- !u!1 &164490
GameObject:
  m_ObjectHideFlags: 1
  m_CorrespondingSourceObject: {fileID: 0}
  m_PrefabInternal: {fileID: 100100000}
  serializedVersion: 6
  m_Component:
  - component: {fileID: 458424}
  m_Layer: 0
  m_Name: mixamorig:LeftHandPinky4
  m_TagString: Untagged
  m_Icon: {fileID: 0}
  m_NavMeshLayer: 0
  m_StaticEditorFlags: 0
  m_IsActive: 1
--- !u!1 &165260
GameObject:
  m_ObjectHideFlags: 1
  m_CorrespondingSourceObject: {fileID: 0}
  m_PrefabInternal: {fileID: 100100000}
  serializedVersion: 6
  m_Component:
  - component: {fileID: 416436}
  m_Layer: 0
  m_Name: mixamorig:RightForeArm
  m_TagString: Untagged
  m_Icon: {fileID: 0}
  m_NavMeshLayer: 0
  m_StaticEditorFlags: 0
  m_IsActive: 1
--- !u!1 &165454
GameObject:
  m_ObjectHideFlags: 1
  m_CorrespondingSourceObject: {fileID: 0}
  m_PrefabInternal: {fileID: 100100000}
  serializedVersion: 6
  m_Component:
  - component: {fileID: 449440}
  m_Layer: 0
  m_Name: mixamorig:RightLeg
  m_TagString: Untagged
  m_Icon: {fileID: 0}
  m_NavMeshLayer: 0
  m_StaticEditorFlags: 0
  m_IsActive: 1
--- !u!1 &166104
GameObject:
  m_ObjectHideFlags: 1
  m_CorrespondingSourceObject: {fileID: 0}
  m_PrefabInternal: {fileID: 100100000}
  serializedVersion: 6
  m_Component:
  - component: {fileID: 418796}
  m_Layer: 0
  m_Name: mixamorig:RightHandPinky2
  m_TagString: Untagged
  m_Icon: {fileID: 0}
  m_NavMeshLayer: 0
  m_StaticEditorFlags: 0
  m_IsActive: 1
--- !u!1 &169558
GameObject:
  m_ObjectHideFlags: 1
  m_CorrespondingSourceObject: {fileID: 0}
  m_PrefabInternal: {fileID: 100100000}
  serializedVersion: 6
  m_Component:
  - component: {fileID: 454900}
  m_Layer: 0
  m_Name: mixamorig:LeftHandRing3
  m_TagString: Untagged
  m_Icon: {fileID: 0}
  m_NavMeshLayer: 0
  m_StaticEditorFlags: 0
  m_IsActive: 1
--- !u!1 &170742
GameObject:
  m_ObjectHideFlags: 1
  m_CorrespondingSourceObject: {fileID: 0}
  m_PrefabInternal: {fileID: 100100000}
  serializedVersion: 6
  m_Component:
  - component: {fileID: 490846}
  m_Layer: 0
  m_Name: mixamorig:RightHandThumb2
  m_TagString: Untagged
  m_Icon: {fileID: 0}
  m_NavMeshLayer: 0
  m_StaticEditorFlags: 0
  m_IsActive: 1
--- !u!1 &173606
GameObject:
  m_ObjectHideFlags: 1
  m_CorrespondingSourceObject: {fileID: 0}
  m_PrefabInternal: {fileID: 100100000}
  serializedVersion: 6
  m_Component:
  - component: {fileID: 422624}
  m_Layer: 0
  m_Name: mixamorig:RightHandPinky4
  m_TagString: Untagged
  m_Icon: {fileID: 0}
  m_NavMeshLayer: 0
  m_StaticEditorFlags: 0
  m_IsActive: 1
--- !u!1 &173964
GameObject:
  m_ObjectHideFlags: 1
  m_CorrespondingSourceObject: {fileID: 0}
  m_PrefabInternal: {fileID: 100100000}
  serializedVersion: 6
  m_Component:
  - component: {fileID: 454652}
  m_Layer: 0
  m_Name: mixamorig:Neck
  m_TagString: Untagged
  m_Icon: {fileID: 0}
  m_NavMeshLayer: 0
  m_StaticEditorFlags: 0
  m_IsActive: 1
--- !u!1 &175228
GameObject:
  m_ObjectHideFlags: 1
  m_CorrespondingSourceObject: {fileID: 0}
  m_PrefabInternal: {fileID: 100100000}
  serializedVersion: 6
  m_Component:
  - component: {fileID: 410336}
  m_Layer: 0
  m_Name: mixamorig:RightHandRing3
  m_TagString: Untagged
  m_Icon: {fileID: 0}
  m_NavMeshLayer: 0
  m_StaticEditorFlags: 0
  m_IsActive: 1
--- !u!1 &177050
GameObject:
  m_ObjectHideFlags: 1
  m_CorrespondingSourceObject: {fileID: 0}
  m_PrefabInternal: {fileID: 100100000}
  serializedVersion: 6
  m_Component:
  - component: {fileID: 414568}
  m_Layer: 0
  m_Name: mixamorig:RightHandIndex3
  m_TagString: Untagged
  m_Icon: {fileID: 0}
  m_NavMeshLayer: 0
  m_StaticEditorFlags: 0
  m_IsActive: 1
--- !u!1 &177336
GameObject:
  m_ObjectHideFlags: 0
  m_CorrespondingSourceObject: {fileID: 0}
  m_PrefabInternal: {fileID: 100100000}
  serializedVersion: 6
  m_Component:
  - component: {fileID: 417622}
  - component: {fileID: 13773064}
  m_Layer: 0
  m_Name: Eyes
  m_TagString: Untagged
  m_Icon: {fileID: 0}
  m_NavMeshLayer: 0
  m_StaticEditorFlags: 0
  m_IsActive: 1
--- !u!1 &179792
GameObject:
  m_ObjectHideFlags: 1
  m_CorrespondingSourceObject: {fileID: 0}
  m_PrefabInternal: {fileID: 100100000}
  serializedVersion: 6
  m_Component:
  - component: {fileID: 498650}
  m_Layer: 0
  m_Name: mixamorig:RightHandPinky1
  m_TagString: Untagged
  m_Icon: {fileID: 0}
  m_NavMeshLayer: 0
  m_StaticEditorFlags: 0
  m_IsActive: 1
--- !u!1 &181020
GameObject:
  m_ObjectHideFlags: 0
  m_CorrespondingSourceObject: {fileID: 0}
  m_PrefabInternal: {fileID: 100100000}
  serializedVersion: 6
  m_Component:
  - component: {fileID: 482384}
  - component: {fileID: 13745364}
  m_Layer: 0
  m_Name: default
  m_TagString: Untagged
  m_Icon: {fileID: 0}
  m_NavMeshLayer: 0
  m_StaticEditorFlags: 0
  m_IsActive: 1
--- !u!1 &182562
GameObject:
  m_ObjectHideFlags: 1
  m_CorrespondingSourceObject: {fileID: 0}
  m_PrefabInternal: {fileID: 100100000}
  serializedVersion: 6
  m_Component:
  - component: {fileID: 437834}
  m_Layer: 0
  m_Name: mixamorig:LeftHandThumb2
  m_TagString: Untagged
  m_Icon: {fileID: 0}
  m_NavMeshLayer: 0
  m_StaticEditorFlags: 0
  m_IsActive: 1
--- !u!1 &183422
GameObject:
  m_ObjectHideFlags: 0
  m_CorrespondingSourceObject: {fileID: 0}
  m_PrefabInternal: {fileID: 100100000}
  serializedVersion: 6
  m_Component:
  - component: {fileID: 477456}
  - component: {fileID: 13700206}
  m_Layer: 0
  m_Name: Tops
  m_TagString: Untagged
  m_Icon: {fileID: 0}
  m_NavMeshLayer: 0
  m_StaticEditorFlags: 0
  m_IsActive: 1
--- !u!1 &183802
GameObject:
  m_ObjectHideFlags: 1
  m_CorrespondingSourceObject: {fileID: 0}
  m_PrefabInternal: {fileID: 100100000}
  serializedVersion: 6
  m_Component:
  - component: {fileID: 427496}
  m_Layer: 0
  m_Name: mixamorig:RightShoulder
  m_TagString: Untagged
  m_Icon: {fileID: 0}
  m_NavMeshLayer: 0
  m_StaticEditorFlags: 0
  m_IsActive: 1
--- !u!1 &185254
GameObject:
  m_ObjectHideFlags: 1
  m_CorrespondingSourceObject: {fileID: 0}
  m_PrefabInternal: {fileID: 100100000}
  serializedVersion: 6
  m_Component:
  - component: {fileID: 461428}
  m_Layer: 0
  m_Name: mixamorig:LeftToeBase
  m_TagString: Untagged
  m_Icon: {fileID: 0}
  m_NavMeshLayer: 0
  m_StaticEditorFlags: 0
  m_IsActive: 1
--- !u!1 &189680
GameObject:
  m_ObjectHideFlags: 1
  m_CorrespondingSourceObject: {fileID: 0}
  m_PrefabInternal: {fileID: 100100000}
  serializedVersion: 6
  m_Component:
  - component: {fileID: 434996}
  m_Layer: 0
  m_Name: mixamorig:RightHandRing4
  m_TagString: Untagged
  m_Icon: {fileID: 0}
  m_NavMeshLayer: 0
  m_StaticEditorFlags: 0
  m_IsActive: 1
--- !u!1 &190354
GameObject:
  m_ObjectHideFlags: 1
  m_CorrespondingSourceObject: {fileID: 0}
  m_PrefabInternal: {fileID: 100100000}
  serializedVersion: 6
  m_Component:
  - component: {fileID: 463010}
  m_Layer: 0
  m_Name: mixamorig:RightArm
  m_TagString: Untagged
  m_Icon: {fileID: 0}
  m_NavMeshLayer: 0
  m_StaticEditorFlags: 0
  m_IsActive: 1
--- !u!1 &191426
GameObject:
  m_ObjectHideFlags: 1
  m_CorrespondingSourceObject: {fileID: 0}
  m_PrefabInternal: {fileID: 100100000}
  serializedVersion: 6
  m_Component:
  - component: {fileID: 431314}
  m_Layer: 0
  m_Name: mixamorig:Spine1
  m_TagString: Untagged
  m_Icon: {fileID: 0}
  m_NavMeshLayer: 0
  m_StaticEditorFlags: 0
  m_IsActive: 1
--- !u!1 &192756
GameObject:
  m_ObjectHideFlags: 1
  m_CorrespondingSourceObject: {fileID: 0}
  m_PrefabInternal: {fileID: 100100000}
  serializedVersion: 6
  m_Component:
  - component: {fileID: 495212}
  m_Layer: 0
  m_Name: mixamorig:Spine
  m_TagString: Untagged
  m_Icon: {fileID: 0}
  m_NavMeshLayer: 0
  m_StaticEditorFlags: 0
  m_IsActive: 1
--- !u!1 &193038
GameObject:
  m_ObjectHideFlags: 1
  m_CorrespondingSourceObject: {fileID: 0}
  m_PrefabInternal: {fileID: 100100000}
  serializedVersion: 6
  m_Component:
  - component: {fileID: 485818}
  m_Layer: 0
  m_Name: mixamorig:RightFoot
  m_TagString: Untagged
  m_Icon: {fileID: 0}
  m_NavMeshLayer: 0
  m_StaticEditorFlags: 0
  m_IsActive: 1
--- !u!1 &195422
GameObject:
  m_ObjectHideFlags: 1
  m_CorrespondingSourceObject: {fileID: 0}
  m_PrefabInternal: {fileID: 100100000}
  serializedVersion: 6
  m_Component:
  - component: {fileID: 406502}
  m_Layer: 0
  m_Name: mixamorig:RightUpLeg
  m_TagString: Untagged
  m_Icon: {fileID: 0}
  m_NavMeshLayer: 0
  m_StaticEditorFlags: 0
  m_IsActive: 1
--- !u!1 &195716
GameObject:
  m_ObjectHideFlags: 1
  m_CorrespondingSourceObject: {fileID: 0}
  m_PrefabInternal: {fileID: 100100000}
  serializedVersion: 6
  m_Component:
  - component: {fileID: 409090}
  m_Layer: 0
  m_Name: mixamorig:RightToe_End
  m_TagString: Untagged
  m_Icon: {fileID: 0}
  m_NavMeshLayer: 0
  m_StaticEditorFlags: 0
  m_IsActive: 1
--- !u!1 &195750
GameObject:
  m_ObjectHideFlags: 1
  m_CorrespondingSourceObject: {fileID: 0}
  m_PrefabInternal: {fileID: 100100000}
  serializedVersion: 6
  m_Component:
  - component: {fileID: 468428}
  m_Layer: 0
  m_Name: mixamorig:HeadTop_End
  m_TagString: Untagged
  m_Icon: {fileID: 0}
  m_NavMeshLayer: 0
  m_StaticEditorFlags: 0
  m_IsActive: 1
--- !u!1 &196524
GameObject:
  m_ObjectHideFlags: 0
  m_CorrespondingSourceObject: {fileID: 0}
  m_PrefabInternal: {fileID: 100100000}
  serializedVersion: 6
  m_Component:
  - component: {fileID: 455532}
  - component: {fileID: 13781948}
  m_Layer: 0
  m_Name: Bottoms
  m_TagString: Untagged
  m_Icon: {fileID: 0}
  m_NavMeshLayer: 0
  m_StaticEditorFlags: 0
  m_IsActive: 1
--- !u!1 &196908
GameObject:
  m_ObjectHideFlags: 0
  m_CorrespondingSourceObject: {fileID: 0}
  m_PrefabInternal: {fileID: 100100000}
  serializedVersion: 6
  m_Component:
  - component: {fileID: 459226}
  m_Layer: 0
  m_Name: mixamorig:Hips
  m_TagString: Untagged
  m_Icon: {fileID: 0}
  m_NavMeshLayer: 0
  m_StaticEditorFlags: 0
  m_IsActive: 1
--- !u!1 &196984
GameObject:
  m_ObjectHideFlags: 1
  m_CorrespondingSourceObject: {fileID: 0}
  m_PrefabInternal: {fileID: 100100000}
  serializedVersion: 6
  m_Component:
  - component: {fileID: 486376}
  m_Layer: 0
  m_Name: mixamorig:LeftHandIndex3
  m_TagString: Untagged
  m_Icon: {fileID: 0}
  m_NavMeshLayer: 0
  m_StaticEditorFlags: 0
  m_IsActive: 1
--- !u!1 &197400
GameObject:
  m_ObjectHideFlags: 1
  m_CorrespondingSourceObject: {fileID: 0}
  m_PrefabInternal: {fileID: 100100000}
  serializedVersion: 6
  m_Component:
  - component: {fileID: 428950}
  m_Layer: 0
  m_Name: mixamorig:LeftHandMiddle1
  m_TagString: Untagged
  m_Icon: {fileID: 0}
  m_NavMeshLayer: 0
  m_StaticEditorFlags: 0
  m_IsActive: 1
--- !u!1 &199480
GameObject:
  m_ObjectHideFlags: 1
  m_CorrespondingSourceObject: {fileID: 0}
  m_PrefabInternal: {fileID: 100100000}
  serializedVersion: 6
  m_Component:
  - component: {fileID: 413732}
  m_Layer: 0
  m_Name: mixamorig:Head
  m_TagString: Untagged
  m_Icon: {fileID: 0}
  m_NavMeshLayer: 0
  m_StaticEditorFlags: 0
  m_IsActive: 1
--- !u!4 &400726
Transform:
  m_ObjectHideFlags: 1
  m_CorrespondingSourceObject: {fileID: 0}
  m_PrefabInternal: {fileID: 100100000}
  m_GameObject: {fileID: 152426}
  m_LocalRotation: {x: 0, y: 0, z: 0, w: 1}
  m_LocalPosition: {x: -0.000058045447, y: 0.052671198, z: 5.684342e-16}
  m_LocalScale: {x: 1, y: 1, z: 1}
  m_Children: []
  m_Father: {fileID: 450594}
  m_RootOrder: 0
  m_LocalEulerAnglesHint: {x: 0, y: 0, z: 0}
--- !u!4 &401014
Transform:
  m_ObjectHideFlags: 1
  m_CorrespondingSourceObject: {fileID: 0}
  m_PrefabInternal: {fileID: 100100000}
  m_GameObject: {fileID: 125640}
  m_LocalRotation: {x: -0.0062968, y: -0.00020242341, z: -0.056120265, w: 0.99840415}
  m_LocalPosition: {x: -0.01873131, y: 0.22231838, z: -0.0028452233}
  m_LocalScale: {x: 1, y: 1, z: 1}
  m_Children:
  - {fileID: 404624}
  m_Father: {fileID: 439936}
  m_RootOrder: 3
  m_LocalEulerAnglesHint: {x: -0.72169995, y: 0.0173, z: -6.4346}
--- !u!4 &404624
Transform:
  m_ObjectHideFlags: 1
  m_CorrespondingSourceObject: {fileID: 0}
  m_PrefabInternal: {fileID: 100100000}
  m_GameObject: {fileID: 101638}
  m_LocalRotation: {x: -0.0000011466157, y: 0.00025197305, z: 0.034926366, w: 0.9993899}
  m_LocalPosition: {x: -0.0022010864, y: 0.05529701, z: 5.684342e-16}
  m_LocalScale: {x: 1, y: 1, z: 1}
  m_Children:
  - {fileID: 454900}
  m_Father: {fileID: 401014}
  m_RootOrder: 0
  m_LocalEulerAnglesHint: {x: -0.0011, y: 0.0289, z: 4.0031}
--- !u!4 &405592
Transform:
  m_ObjectHideFlags: 1
  m_CorrespondingSourceObject: {fileID: 0}
  m_PrefabInternal: {fileID: 100100000}
  m_GameObject: {fileID: 126992}
  m_LocalRotation: {x: 0, y: 0, z: 0, w: 1}
  m_LocalPosition: {x: 0.00067950675, y: 0.04594927, z: 0}
  m_LocalScale: {x: 1, y: 1, z: 1}
  m_Children: []
  m_Father: {fileID: 454900}
  m_RootOrder: 0
  m_LocalEulerAnglesHint: {x: 0, y: 0, z: 0}
--- !u!4 &406502
Transform:
  m_ObjectHideFlags: 1
  m_CorrespondingSourceObject: {fileID: 0}
  m_PrefabInternal: {fileID: 100100000}
  m_GameObject: {fileID: 195422}
  m_LocalRotation: {x: -0.00020673273, y: 0.011937466, z: 0.99983835, w: 0.013443061}
  m_LocalPosition: {x: 0.1721964, y: -0.12758611, z: 0.010675796}
  m_LocalScale: {x: 1, y: 1, z: 1}
  m_Children:
  - {fileID: 449440}
  m_Father: {fileID: 459226}
  m_RootOrder: 1
  m_LocalEulerAnglesHint: {x: -1.3682, y: -0.0053, z: 178.4594}
--- !u!4 &409090
Transform:
  m_ObjectHideFlags: 1
  m_CorrespondingSourceObject: {fileID: 0}
  m_PrefabInternal: {fileID: 100100000}
  m_GameObject: {fileID: 195716}
  m_LocalRotation: {x: 0, y: 0, z: 0, w: 1}
  m_LocalPosition: {x: -0, y: 0.19016077, z: 4.440892e-18}
  m_LocalScale: {x: 1, y: 1, z: 1}
  m_Children: []
  m_Father: {fileID: 451372}
  m_RootOrder: 0
  m_LocalEulerAnglesHint: {x: 0, y: 0, z: 0}
--- !u!4 &410336
Transform:
  m_ObjectHideFlags: 1
  m_CorrespondingSourceObject: {fileID: 0}
  m_PrefabInternal: {fileID: 100100000}
  m_GameObject: {fileID: 175228}
  m_LocalRotation: {x: 0.0000026208834, y: -0.00031085534, z: 0.019108387, w: 0.9998174}
  m_LocalPosition: {x: -0.0014277718, y: 0.049986985, z: 0}
  m_LocalScale: {x: 1, y: 1, z: 1}
  m_Children:
  - {fileID: 434996}
  m_Father: {fileID: 481464}
  m_RootOrder: 0
  m_LocalEulerAnglesHint: {x: 0.0009999999, y: -0.0356, z: 2.1898}
--- !u!4 &410672
Transform:
  m_ObjectHideFlags: 1
  m_CorrespondingSourceObject: {fileID: 0}
  m_PrefabInternal: {fileID: 100100000}
  m_GameObject: {fileID: 127222}
  m_LocalRotation: {x: -0.0062951935, y: 0.000079745194, z: -0.027619211, w: 0.9995987}
  m_LocalPosition: {x: 0.060000345, y: 0.22406928, z: 0.0036777505}
  m_LocalScale: {x: 1, y: 1, z: 1}
  m_Children:
  - {fileID: 474934}
  m_Father: {fileID: 439936}
  m_RootOrder: 0
  m_LocalEulerAnglesHint: {x: -0.7208, y: 0.029099999, z: -3.1655998}
--- !u!4 &413572
Transform:
  m_ObjectHideFlags: 1
  m_CorrespondingSourceObject: {fileID: 0}
  m_PrefabInternal: {fileID: 100100000}
  m_GameObject: {fileID: 121292}
  m_LocalRotation: {x: -0.005735209, y: 0.00029129244, z: 0.037488688, w: 0.9992806}
  m_LocalPosition: {x: -0.06067441, y: 0.21209301, z: 0.0035213798}
  m_LocalScale: {x: 1, y: 1, z: 1}
  m_Children:
  - {fileID: 477630}
  m_Father: {fileID: 493804}
  m_RootOrder: 0
  m_LocalEulerAnglesHint: {x: -0.658, y: 0.0087, z: 4.2969}
--- !u!4 &413732
Transform:
  m_ObjectHideFlags: 1
  m_CorrespondingSourceObject: {fileID: 0}
  m_PrefabInternal: {fileID: 100100000}
  m_GameObject: {fileID: 199480}
  m_LocalRotation: {x: -4e-45, y: -5.293956e-23, z: -6.985074e-23, w: 1}
  m_LocalPosition: {x: 0.0045651514, y: 0.18683426, z: 0.046544723}
  m_LocalScale: {x: 1, y: 1, z: 1}
  m_Children:
  - {fileID: 468428}
  - {fileID: 449642}
  - {fileID: 423616}
  m_Father: {fileID: 454652}
  m_RootOrder: 0
  m_LocalEulerAnglesHint: {x: 0, y: 0, z: 0}
--- !u!4 &413944
Transform:
  m_ObjectHideFlags: 1
  m_CorrespondingSourceObject: {fileID: 0}
  m_PrefabInternal: {fileID: 100100000}
  m_GameObject: {fileID: 129498}
  m_LocalRotation: {x: -0.05076435, y: 0.0010858868, z: -0.02659545, w: 0.9983559}
  m_LocalPosition: {x: -3.5527136e-17, y: 0.72983485, z: -4.440892e-18}
  m_LocalScale: {x: 1, y: 1, z: 1}
  m_Children:
  - {fileID: 494450}
  m_Father: {fileID: 428896}
  m_RootOrder: 0
  m_LocalEulerAnglesHint: {x: -5.8143, y: 0.28039998, z: -3.0662}
--- !u!4 &414568
Transform:
  m_ObjectHideFlags: 1
  m_CorrespondingSourceObject: {fileID: 0}
  m_PrefabInternal: {fileID: 100100000}
  m_GameObject: {fileID: 177050}
  m_LocalRotation: {x: -0.00000007111811, y: -0.000017378145, z: -0.0031289314, w: 0.9999951}
  m_LocalPosition: {x: 0.0002019677, y: 0.053120356, z: -5.684342e-16}
  m_LocalScale: {x: 1, y: 1, z: 1}
  m_Children:
  - {fileID: 432420}
  m_Father: {fileID: 477630}
  m_RootOrder: 0
  m_LocalEulerAnglesHint: {x: 0, y: -0.0019999999, z: -0.3586}
--- !u!4 &416318
Transform:
  m_ObjectHideFlags: 1
  m_CorrespondingSourceObject: {fileID: 0}
  m_PrefabInternal: {fileID: 100100000}
  m_GameObject: {fileID: 149906}
  m_LocalRotation: {x: 1.3580174e-38, y: -1.3552527e-20, z: 1.00204e-18, w: 1}
  m_LocalPosition: {x: -0, y: 0.273255, z: -1.7763568e-17}
  m_LocalScale: {x: 1, y: 1, z: 1}
  m_Children:
  - {fileID: 460132}
  - {fileID: 454652}
  - {fileID: 427496}
  m_Father: {fileID: 431314}
  m_RootOrder: 0
  m_LocalEulerAnglesHint: {x: 0, y: 0, z: 0}
--- !u!4 &416436
Transform:
  m_ObjectHideFlags: 1
  m_CorrespondingSourceObject: {fileID: 0}
  m_PrefabInternal: {fileID: 100100000}
  m_GameObject: {fileID: 165260}
  m_LocalRotation: {x: 0.00000038494784, y: -0.000919811, z: 0.000000014236626, w: 0.9999996}
  m_LocalPosition: {x: -0, y: 0.5591963, z: 0}
  m_LocalScale: {x: 1, y: 1, z: 1}
  m_Children:
  - {fileID: 493804}
  m_Father: {fileID: 463010}
  m_RootOrder: 0
  m_LocalEulerAnglesHint: {x: 0, y: -0.105399996, z: 0}
--- !u!4 &417622
Transform:
  m_ObjectHideFlags: 1
  m_CorrespondingSourceObject: {fileID: 0}
  m_PrefabInternal: {fileID: 100100000}
  m_GameObject: {fileID: 177336}
  m_LocalRotation: {x: 0, y: 0, z: 0, w: 1}
  m_LocalPosition: {x: 0, y: 0, z: 0}
  m_LocalScale: {x: 1, y: 1, z: 1}
  m_Children: []
  m_Father: {fileID: 442198}
  m_RootOrder: 3
  m_LocalEulerAnglesHint: {x: 0, y: 0, z: 0}
--- !u!4 &418796
Transform:
  m_ObjectHideFlags: 1
  m_CorrespondingSourceObject: {fileID: 0}
  m_PrefabInternal: {fileID: 100100000}
  m_GameObject: {fileID: 166104}
  m_LocalRotation: {x: 0.00000022642949, y: 0.0000057374305, z: 0.0016220391, w: 0.9999987}
  m_LocalPosition: {x: -0.00020361907, y: 0.055117507, z: 0}
  m_LocalScale: {x: 1, y: 1, z: 1}
  m_Children:
  - {fileID: 490280}
  m_Father: {fileID: 498650}
  m_RootOrder: 0
  m_LocalEulerAnglesHint: {x: 0, y: 0.0007, z: 0.1859}
--- !u!4 &422624
Transform:
  m_ObjectHideFlags: 1
  m_CorrespondingSourceObject: {fileID: 0}
  m_PrefabInternal: {fileID: 100100000}
  m_GameObject: {fileID: 173606}
  m_LocalRotation: {x: 0, y: 0, z: 0, w: 1}
  m_LocalPosition: {x: 0.00021943198, y: 0.032834996, z: 0}
  m_LocalScale: {x: 1, y: 1, z: 1}
  m_Children: []
  m_Father: {fileID: 490280}
  m_RootOrder: 0
  m_LocalEulerAnglesHint: {x: 0, y: 0, z: 0}
--- !u!4 &422674
Transform:
  m_ObjectHideFlags: 1
  m_CorrespondingSourceObject: {fileID: 0}
  m_PrefabInternal: {fileID: 100100000}
  m_GameObject: {fileID: 144304}
  m_LocalRotation: {x: 0.21774304, y: -0.05428205, z: -0.29917637, w: 0.9274346}
  m_LocalPosition: {x: 0.055678263, y: 0.090577744, z: 0.029864978}
  m_LocalScale: {x: 1, y: 1, z: 1}
  m_Children:
  - {fileID: 437834}
  m_Father: {fileID: 439936}
  m_RootOrder: 4
  m_LocalEulerAnglesHint: {x: 21.8023, y: -14.4045, z: -38.5462}
--- !u!4 &423108
Transform:
  m_ObjectHideFlags: 1
  m_CorrespondingSourceObject: {fileID: 0}
  m_PrefabInternal: {fileID: 100100000}
  m_GameObject: {fileID: 121612}
  m_LocalRotation: {x: 0, y: 0, z: 0, w: 1}
  m_LocalPosition: {x: -0.0018584501, y: 0.053149804, z: 5.684342e-16}
  m_LocalScale: {x: 1, y: 1, z: 1}
  m_Children: []
  m_Father: {fileID: 477844}
  m_RootOrder: 0
  m_LocalEulerAnglesHint: {x: 0, y: 0, z: 0}
--- !u!4 &423616
Transform:
  m_ObjectHideFlags: 1
  m_CorrespondingSourceObject: {fileID: 0}
  m_PrefabInternal: {fileID: 100100000}
  m_GameObject: {fileID: 105116}
  m_LocalRotation: {x: -0, y: -1.4105932e-37, z: -1.0285576e-37, w: 1}
  m_LocalPosition: {x: 0.059113868, y: 0.13829884, z: 0.16458935}
  m_LocalScale: {x: 1, y: 1, z: 1}
  m_Children: []
  m_Father: {fileID: 413732}
  m_RootOrder: 2
  m_LocalEulerAnglesHint: {x: 0, y: 0, z: 0}
--- !u!4 &424310
Transform:
  m_ObjectHideFlags: 1
  m_CorrespondingSourceObject: {fileID: 0}
  m_PrefabInternal: {fileID: 100100000}
  m_GameObject: {fileID: 111100}
  m_LocalRotation: {x: 0, y: 0, z: 0, w: 1}
  m_LocalPosition: {x: 0, y: 0, z: 0}
  m_LocalScale: {x: 1, y: 1, z: 1}
  m_Children: []
  m_Father: {fileID: 442198}
  m_RootOrder: 6
  m_LocalEulerAnglesHint: {x: 0, y: 0, z: 0}
--- !u!4 &425334
Transform:
  m_ObjectHideFlags: 1
  m_CorrespondingSourceObject: {fileID: 0}
  m_PrefabInternal: {fileID: 100100000}
  m_GameObject: {fileID: 145102}
  m_LocalRotation: {x: 0, y: 0, z: 0, w: 1}
  m_LocalPosition: {x: 0, y: 0, z: 0}
  m_LocalScale: {x: 1, y: 1, z: 1}
  m_Children: []
  m_Father: {fileID: 442198}
  m_RootOrder: 0
  m_LocalEulerAnglesHint: {x: 0, y: 0, z: 0}
--- !u!4 &426806
Transform:
  m_ObjectHideFlags: 1
  m_CorrespondingSourceObject: {fileID: 0}
  m_PrefabInternal: {fileID: 100100000}
  m_GameObject: {fileID: 161300}
  m_LocalRotation: {x: 0, y: 0, z: 0, w: 1}
  m_LocalPosition: {x: -0.0026522805, y: 0.045426913, z: 5.684342e-16}
  m_LocalScale: {x: 1, y: 1, z: 1}
  m_Children: []
  m_Father: {fileID: 468176}
  m_RootOrder: 0
  m_LocalEulerAnglesHint: {x: 0, y: 0, z: 0}
--- !u!4 &427256
Transform:
  m_ObjectHideFlags: 1
  m_CorrespondingSourceObject: {fileID: 0}
  m_PrefabInternal: {fileID: 100100000}
  m_GameObject: {fileID: 160554}
  m_LocalRotation: {x: -0.0063627986, y: -0.0014390444, z: -0.028072301, w: 0.9995846}
  m_LocalPosition: {x: -0.057936724, y: 0.20414588, z: 0.003895685}
  m_LocalScale: {x: 1, y: 1, z: 1}
  m_Children:
  - {fileID: 475192}
  m_Father: {fileID: 439936}
  m_RootOrder: 2
  m_LocalEulerAnglesHint: {x: -0.7335, y: -0.1444, z: -3.2164}
--- !u!4 &427496
Transform:
  m_ObjectHideFlags: 1
  m_CorrespondingSourceObject: {fileID: 0}
  m_PrefabInternal: {fileID: 100100000}
  m_GameObject: {fileID: 183802}
  m_LocalRotation: {x: 0.49951297, y: 0.5773504, z: -0.4989541, w: 0.4101197}
  m_LocalPosition: {x: 0.10528513, y: 0.17084196, z: 0.011598651}
  m_LocalScale: {x: 1, y: 1, z: 1}
  m_Children:
  - {fileID: 463010}
  m_Father: {fileID: 416318}
  m_RootOrder: 2
  m_LocalEulerAnglesHint: {x: 80.3544, y: -171.45279, z: 88.9525}
--- !u!4 &428896
Transform:
  m_ObjectHideFlags: 1
  m_CorrespondingSourceObject: {fileID: 0}
  m_PrefabInternal: {fileID: 100100000}
  m_GameObject: {fileID: 137508}
  m_LocalRotation: {x: 0.00012568703, y: 0.007859266, z: 0.999879, w: -0.013426393}
  m_LocalPosition: {x: -0.17482692, y: -0.1223668, z: 0.022833802}
  m_LocalScale: {x: 1, y: 1, z: 1}
  m_Children:
  - {fileID: 413944}
  m_Father: {fileID: 459226}
  m_RootOrder: 0
  m_LocalEulerAnglesHint: {x: -0.9008, y: 0.0023, z: -178.4614}
--- !u!4 &428950
Transform:
  m_ObjectHideFlags: 1
  m_CorrespondingSourceObject: {fileID: 0}
  m_PrefabInternal: {fileID: 100100000}
  m_GameObject: {fileID: 197400}
  m_LocalRotation: {x: -0.0063356156, y: -0.0010915535, z: -0.036385104, w: 0.99931717}
  m_LocalPosition: {x: 0.016667688, y: 0.22942594, z: -0.0028947128}
  m_LocalScale: {x: 1, y: 1, z: 1}
  m_Children:
  - {fileID: 432640}
  m_Father: {fileID: 439936}
  m_RootOrder: 1
  m_LocalEulerAnglesHint: {x: -0.7301, y: -0.0986, z: -4.1698}
--- !u!4 &431314
Transform:
  m_ObjectHideFlags: 1
  m_CorrespondingSourceObject: {fileID: 0}
  m_PrefabInternal: {fileID: 100100000}
  m_GameObject: {fileID: 191426}
  m_LocalRotation: {x: -0.01748043, y: -0.00019876621, z: 0.011368313, w: 0.99978256}
  m_LocalPosition: {x: -1.110223e-18, y: 0.22687586, z: -2.220446e-18}
  m_LocalScale: {x: 1, y: 1, z: 1}
  m_Children:
  - {fileID: 416318}
  m_Father: {fileID: 495212}
  m_RootOrder: 0
  m_LocalEulerAnglesHint: {x: -2.0028, y: -0.045599997, z: 1.3037}
--- !u!4 &432420
Transform:
  m_ObjectHideFlags: 1
  m_CorrespondingSourceObject: {fileID: 0}
  m_PrefabInternal: {fileID: 100100000}
  m_GameObject: {fileID: 152642}
  m_LocalRotation: {x: 0, y: 0, z: 0, w: 1}
  m_LocalPosition: {x: -0.00011305149, y: 0.046027392, z: 0}
  m_LocalScale: {x: 1, y: 1, z: 1}
  m_Children: []
  m_Father: {fileID: 414568}
  m_RootOrder: 0
  m_LocalEulerAnglesHint: {x: 0, y: 0, z: 0}
--- !u!4 &432640
Transform:
  m_ObjectHideFlags: 1
  m_CorrespondingSourceObject: {fileID: 0}
  m_PrefabInternal: {fileID: 100100000}
  m_GameObject: {fileID: 124782}
  m_LocalRotation: {x: 0.0000003621341, y: 0.000030233003, z: 0.00078168523, w: 0.9999997}
  m_LocalPosition: {x: -0.000016839485, y: 0.060570013, z: 0}
  m_LocalScale: {x: 1, y: 1, z: 1}
  m_Children:
  - {fileID: 450594}
  m_Father: {fileID: 428950}
  m_RootOrder: 0
  m_LocalEulerAnglesHint: {x: 0, y: 0.0034999999, z: 0.0896}
--- !u!4 &433860
Transform:
  m_ObjectHideFlags: 1
  m_CorrespondingSourceObject: {fileID: 0}
  m_PrefabInternal: {fileID: 100100000}
  m_GameObject: {fileID: 112400}
  m_LocalRotation: {x: 0, y: 0, z: 0, w: 1}
  m_LocalPosition: {x: 0.006793187, y: 0.03776556, z: 5.684342e-16}
  m_LocalScale: {x: 1, y: 1, z: 1}
  m_Children: []
  m_Father: {fileID: 443008}
  m_RootOrder: 0
  m_LocalEulerAnglesHint: {x: 0, y: 0, z: 0}
--- !u!4 &434996
Transform:
  m_ObjectHideFlags: 1
  m_CorrespondingSourceObject: {fileID: 0}
  m_PrefabInternal: {fileID: 100100000}
  m_GameObject: {fileID: 189680}
  m_LocalRotation: {x: 0, y: 0, z: 0, w: 1}
  m_LocalPosition: {x: 0.00042282877, y: 0.04378985, z: 0}
  m_LocalScale: {x: 1, y: 1, z: 1}
  m_Children: []
  m_Father: {fileID: 410336}
  m_RootOrder: 0
  m_LocalEulerAnglesHint: {x: 0, y: 0, z: 0}
--- !u!4 &437834
Transform:
  m_ObjectHideFlags: 1
  m_CorrespondingSourceObject: {fileID: 0}
  m_PrefabInternal: {fileID: 100100000}
  m_GameObject: {fileID: 182562}
  m_LocalRotation: {x: 0.000010890704, y: -0.00026268666, z: -0.00788743, w: 0.9999689}
  m_LocalPosition: {x: -0.0032035252, y: 0.0928631, z: 0}
  m_LocalScale: {x: 1, y: 1, z: 1}
  m_Children:
  - {fileID: 443008}
  m_Father: {fileID: 422674}
  m_RootOrder: 0
  m_LocalEulerAnglesHint: {x: 0.0009999999, y: -0.030199999, z: -0.90389997}
--- !u!4 &439936
Transform:
  m_ObjectHideFlags: 1
  m_CorrespondingSourceObject: {fileID: 0}
  m_PrefabInternal: {fileID: 100100000}
  m_GameObject: {fileID: 151858}
  m_LocalRotation: {x: 0.0080404375, y: 0.048284523, z: 0.035904847, w: 0.9981557}
  m_LocalPosition: {x: -0, y: 0.42342794, z: 0}
  m_LocalScale: {x: 1, y: 1, z: 1}
  m_Children:
  - {fileID: 410672}
  - {fileID: 428950}
  - {fileID: 427256}
  - {fileID: 401014}
  - {fileID: 422674}
  m_Father: {fileID: 465238}
  m_RootOrder: 0
  m_LocalEulerAnglesHint: {x: 0.72099996, y: 5.5650997, z: 4.1552997}
--- !u!4 &442198
Transform:
  m_ObjectHideFlags: 1
  m_CorrespondingSourceObject: {fileID: 0}
  m_PrefabInternal: {fileID: 100100000}
  m_GameObject: {fileID: 118418}
  m_LocalRotation: {x: 0, y: 0, z: 0, w: 1}
  m_LocalPosition: {x: 0, y: 0, z: 0}
  m_LocalScale: {x: 1, y: 1, z: 1}
  m_Children:
  - {fileID: 425334}
  - {fileID: 455532}
  - {fileID: 482384}
  - {fileID: 417622}
  - {fileID: 474464}
  - {fileID: 459226}
  - {fileID: 424310}
  - {fileID: 477456}
  m_Father: {fileID: 0}
  m_RootOrder: 0
  m_LocalEulerAnglesHint: {x: 0, y: 0, z: 0}
--- !u!4 &443008
Transform:
  m_ObjectHideFlags: 1
  m_CorrespondingSourceObject: {fileID: 0}
  m_PrefabInternal: {fileID: 100100000}
  m_GameObject: {fileID: 112086}
  m_LocalRotation: {x: -0.00019719035, y: -0.00308764, z: 0.11386781, w: 0.9934911}
  m_LocalPosition: {x: -0.0035896623, y: 0.071363345, z: -5.684342e-16}
  m_LocalScale: {x: 1, y: 1, z: 1}
  m_Children:
  - {fileID: 433860}
  m_Father: {fileID: 437834}
  m_RootOrder: 0
  m_LocalEulerAnglesHint: {x: 0.0178, y: -0.3541, z: 13.076699}
--- !u!4 &444304
Transform:
  m_ObjectHideFlags: 1
  m_CorrespondingSourceObject: {fileID: 0}
  m_PrefabInternal: {fileID: 100100000}
  m_GameObject: {fileID: 140470}
  m_LocalRotation: {x: 0.006629571, y: -0.00020663362, z: -0.06419924, w: 0.9979151}
  m_LocalPosition: {x: -0, y: 0.2168612, z: 0}
  m_LocalScale: {x: 1, y: 1, z: 1}
  m_Children:
  - {fileID: 465238}
  m_Father: {fileID: 460132}
  m_RootOrder: 0
  m_LocalEulerAnglesHint: {x: 0.75659996, y: -0.072399996, z: -7.3623996}
--- !u!4 &449440
Transform:
  m_ObjectHideFlags: 1
  m_CorrespondingSourceObject: {fileID: 0}
  m_PrefabInternal: {fileID: 100100000}
  m_GameObject: {fileID: 165454}
  m_LocalRotation: {x: -0.05074879, y: -0.000866654, z: 0.02617707, w: 0.99836797}
  m_LocalPosition: {x: -0, y: 0.7253664, z: -4.440892e-18}
  m_LocalScale: {x: 1, y: 1, z: 1}
  m_Children:
  - {fileID: 485818}
  m_Father: {fileID: 406502}
  m_RootOrder: 0
  m_LocalEulerAnglesHint: {x: -5.8132, y: -0.2527, z: 3.0167}
--- !u!4 &449642
Transform:
  m_ObjectHideFlags: 1
  m_CorrespondingSourceObject: {fileID: 0}
  m_PrefabInternal: {fileID: 100100000}
  m_GameObject: {fileID: 132210}
  m_LocalRotation: {x: -0, y: -1.4105932e-37, z: -1.0285576e-37, w: 1}
  m_LocalPosition: {x: -0.057536583, y: 0.13851114, z: 0.16902155}
  m_LocalScale: {x: 1, y: 1, z: 1}
  m_Children: []
  m_Father: {fileID: 413732}
  m_RootOrder: 1
  m_LocalEulerAnglesHint: {x: 0, y: 0, z: 0}
--- !u!4 &450594
Transform:
  m_ObjectHideFlags: 1
  m_CorrespondingSourceObject: {fileID: 0}
  m_PrefabInternal: {fileID: 100100000}
  m_GameObject: {fileID: 102186}
  m_LocalRotation: {x: 0.0000001292, y: -0.0000010723483, z: -0.0011918843, w: 0.9999993}
  m_LocalPosition: {x: 0.000074884934, y: 0.058475293, z: -5.684342e-16}
  m_LocalScale: {x: 1, y: 1, z: 1}
  m_Children:
  - {fileID: 400726}
  m_Father: {fileID: 432640}
  m_RootOrder: 0
  m_LocalEulerAnglesHint: {x: 0, y: -0.0001, z: -0.1366}
--- !u!4 &451372
Transform:
  m_ObjectHideFlags: 1
  m_CorrespondingSourceObject: {fileID: 0}
  m_PrefabInternal: {fileID: 100100000}
  m_GameObject: {fileID: 135878}
  m_LocalRotation: {x: 0.3890907, y: -0.016540313, z: 0.0069875247, w: 0.92102444}
  m_LocalPosition: {x: -0, y: 0.28584364, z: 3.5527136e-17}
  m_LocalScale: {x: 1, y: 1, z: 1}
  m_Children:
  - {fileID: 409090}
  m_Father: {fileID: 485818}
  m_RootOrder: 0
  m_LocalEulerAnglesHint: {x: 45.8037, y: -2.0577, z: 0}
--- !u!4 &454652
Transform:
  m_ObjectHideFlags: 1
  m_CorrespondingSourceObject: {fileID: 0}
  m_PrefabInternal: {fileID: 100100000}
  m_GameObject: {fileID: 173964}
  m_LocalRotation: {x: 0.022367464, y: 0.00013627934, z: -0.011060171, w: 0.9996886}
  m_LocalPosition: {x: 0.011640553, y: 0.27707368, z: 0.016209144}
  m_LocalScale: {x: 1, y: 1, z: 1}
  m_Children:
  - {fileID: 413732}
  m_Father: {fileID: 416318}
  m_RootOrder: 1
  m_LocalEulerAnglesHint: {x: 2.5634, y: -0.0128, z: -1.2681}
--- !u!4 &454900
Transform:
  m_ObjectHideFlags: 1
  m_CorrespondingSourceObject: {fileID: 0}
  m_PrefabInternal: {fileID: 100100000}
  m_GameObject: {fileID: 169558}
  m_LocalRotation: {x: 0.000022824519, y: 0.001023029, z: -0.00764343, w: 0.99997026}
  m_LocalPosition: {x: 0.0015215797, y: 0.050574858, z: -5.684342e-16}
  m_LocalScale: {x: 1, y: 1, z: 1}
  m_Children:
  - {fileID: 405592}
  m_Father: {fileID: 404624}
  m_RootOrder: 0
  m_LocalEulerAnglesHint: {x: 0.0034999999, y: 0.117199995, z: -0.8759}
--- !u!4 &455532
Transform:
  m_ObjectHideFlags: 1
  m_CorrespondingSourceObject: {fileID: 0}
  m_PrefabInternal: {fileID: 100100000}
  m_GameObject: {fileID: 196524}
  m_LocalRotation: {x: 0, y: 0, z: 0, w: 1}
  m_LocalPosition: {x: 0, y: 0, z: 0}
  m_LocalScale: {x: 1, y: 1, z: 1}
  m_Children: []
  m_Father: {fileID: 442198}
  m_RootOrder: 1
  m_LocalEulerAnglesHint: {x: 0, y: 0, z: 0}
--- !u!4 &458424
Transform:
  m_ObjectHideFlags: 1
  m_CorrespondingSourceObject: {fileID: 0}
  m_PrefabInternal: {fileID: 100100000}
  m_GameObject: {fileID: 164490}
  m_LocalRotation: {x: 0, y: 0, z: 0, w: 1}
  m_LocalPosition: {x: -0.00029766446, y: 0.03430197, z: 0}
  m_LocalScale: {x: 1, y: 1, z: 1}
  m_Children: []
  m_Father: {fileID: 469894}
  m_RootOrder: 0
  m_LocalEulerAnglesHint: {x: 0, y: 0, z: 0}
--- !u!4 &459226
Transform:
  m_ObjectHideFlags: 1
  m_CorrespondingSourceObject: {fileID: 0}
  m_PrefabInternal: {fileID: 100100000}
  m_GameObject: {fileID: 196908}
  m_LocalRotation: {x: 0.000003305217, y: -0.0000019270085, z: 0.0000951673, w: 1}
  m_LocalPosition: {x: 0.0012972471, y: 1.8470334, z: -0.016812585}
  m_LocalScale: {x: 1, y: 1, z: 1}
  m_Children:
  - {fileID: 428896}
  - {fileID: 406502}
  - {fileID: 495212}
  m_Father: {fileID: 442198}
  m_RootOrder: 5
  m_LocalEulerAnglesHint: {x: 0.0004, y: -0.0002, z: 0.0109}
--- !u!4 &460132
Transform:
  m_ObjectHideFlags: 1
  m_CorrespondingSourceObject: {fileID: 0}
  m_PrefabInternal: {fileID: 100100000}
  m_GameObject: {fileID: 137504}
  m_LocalRotation: {x: -0.48944482, y: 0.5755979, z: -0.4836263, w: -0.44185576}
  m_LocalPosition: {x: -0.092758045, y: 0.1735428, z: 0.01168882}
  m_LocalScale: {x: 1, y: 1, z: 1}
  m_Children:
  - {fileID: 444304}
  m_Father: {fileID: 416318}
  m_RootOrder: 0
  m_LocalEulerAnglesHint: {x: 81.6017, y: -166.0356, z: -68.6814}
--- !u!4 &461428
Transform:
  m_ObjectHideFlags: 1
  m_CorrespondingSourceObject: {fileID: 0}
  m_PrefabInternal: {fileID: 100100000}
  m_GameObject: {fileID: 185254}
  m_LocalRotation: {x: 0.37568218, y: -0.016913142, z: 0.0068575228, w: 0.92656887}
  m_LocalPosition: {x: -0, y: 0.29041326, z: -1.7763568e-17}
  m_LocalScale: {x: 1, y: 1, z: 1}
  m_Children:
  - {fileID: 491802}
  m_Father: {fileID: 494450}
  m_RootOrder: 0
  m_LocalEulerAnglesHint: {x: 44.140697, y: -2.0914, z: 0}
--- !u!4 &463010
Transform:
  m_ObjectHideFlags: 1
  m_CorrespondingSourceObject: {fileID: 0}
  m_PrefabInternal: {fileID: 100100000}
  m_GameObject: {fileID: 190354}
  m_LocalRotation: {x: -0.0014537254, y: -0.00045770212, z: 0.0840457, w: 0.99646074}
  m_LocalPosition: {x: -1.4210854e-16, y: 0.22229682, z: 0}
  m_LocalScale: {x: 1, y: 1, z: 1}
  m_Children:
  - {fileID: 416436}
  m_Father: {fileID: 427496}
  m_RootOrder: 0
  m_LocalEulerAnglesHint: {x: -0.1616, y: -0.0663, z: 9.6424}
--- !u!4 &465238
Transform:
  m_ObjectHideFlags: 1
  m_CorrespondingSourceObject: {fileID: 0}
  m_PrefabInternal: {fileID: 100100000}
  m_GameObject: {fileID: 145762}
  m_LocalRotation: {x: 0.00000024279035, y: -0.0003699821, z: 0.00000016757768, w: 0.99999994}
  m_LocalPosition: {x: 3.5527136e-17, y: 0.5241112, z: 0}
  m_LocalScale: {x: 1, y: 1, z: 1}
  m_Children:
  - {fileID: 439936}
  m_Father: {fileID: 444304}
  m_RootOrder: 0
  m_LocalEulerAnglesHint: {x: 0, y: -0.0424, z: 0}
--- !u!4 &468176
Transform:
  m_ObjectHideFlags: 1
  m_CorrespondingSourceObject: {fileID: 0}
  m_PrefabInternal: {fileID: 100100000}
  m_GameObject: {fileID: 130576}
  m_LocalRotation: {x: -0.000012853604, y: 0.0010226842, z: -0.045456685, w: 0.9989658}
  m_LocalPosition: {x: 0.002553824, y: 0.07823951, z: 5.684342e-16}
  m_LocalScale: {x: 1, y: 1, z: 1}
  m_Children:
  - {fileID: 426806}
  m_Father: {fileID: 490846}
  m_RootOrder: 0
  m_LocalEulerAnglesHint: {x: 0.0039, y: 0.1171, z: -5.2107997}
--- !u!4 &468428
Transform:
  m_ObjectHideFlags: 1
  m_CorrespondingSourceObject: {fileID: 0}
  m_PrefabInternal: {fileID: 100100000}
  m_GameObject: {fileID: 195750}
  m_LocalRotation: {x: 0, y: 0, z: 0, w: 1}
  m_LocalPosition: {x: -0.0031364502, y: 0.35254478, z: 0.10078138}
  m_LocalScale: {x: 1, y: 1, z: 1}
  m_Children: []
  m_Father: {fileID: 413732}
  m_RootOrder: 0
  m_LocalEulerAnglesHint: {x: 0, y: 0, z: 0}
--- !u!4 &469894
Transform:
  m_ObjectHideFlags: 1
  m_CorrespondingSourceObject: {fileID: 0}
  m_PrefabInternal: {fileID: 100100000}
  m_GameObject: {fileID: 142678}
  m_LocalRotation: {x: -0.0000013693495, y: 0.00008904058, z: 0.004522359, w: 0.9999898}
  m_LocalPosition: {x: -0.0005724722, y: 0.03225539, z: 0}
  m_LocalScale: {x: 1, y: 1, z: 1}
  m_Children:
  - {fileID: 458424}
  m_Father: {fileID: 475192}
  m_RootOrder: 0
  m_LocalEulerAnglesHint: {x: -0.0002, y: 0.010199999, z: 0.5182}
--- !u!4 &474464
Transform:
  m_ObjectHideFlags: 1
  m_CorrespondingSourceObject: {fileID: 0}
  m_PrefabInternal: {fileID: 100100000}
  m_GameObject: {fileID: 145900}
  m_LocalRotation: {x: 0, y: 0, z: 0, w: 1}
  m_LocalPosition: {x: 0, y: 0, z: 0}
  m_LocalScale: {x: 1, y: 1, z: 1}
  m_Children: []
  m_Father: {fileID: 442198}
  m_RootOrder: 4
  m_LocalEulerAnglesHint: {x: 0, y: 0, z: 0}
--- !u!4 &474890
Transform:
  m_ObjectHideFlags: 1
  m_CorrespondingSourceObject: {fileID: 0}
  m_PrefabInternal: {fileID: 100100000}
  m_GameObject: {fileID: 113068}
  m_LocalRotation: {x: -0.005735031, y: 0.00045637935, z: 0.04729326, w: 0.9988645}
  m_LocalPosition: {x: -0.016314456, y: 0.21259671, z: -0.0024393578}
  m_LocalScale: {x: 1, y: 1, z: 1}
  m_Children:
  - {fileID: 485166}
  m_Father: {fileID: 493804}
  m_RootOrder: 1
  m_LocalEulerAnglesHint: {x: -0.65889996, y: 0.0212, z: 5.4214}
--- !u!4 &474934
Transform:
  m_ObjectHideFlags: 1
  m_CorrespondingSourceObject: {fileID: 0}
  m_PrefabInternal: {fileID: 100100000}
  m_GameObject: {fileID: 114502}
  m_LocalRotation: {x: -0.00000093417134, y: -0.00016353324, z: -0.014132526, w: 0.99990016}
  m_LocalPosition: {x: 0.0009824325, y: 0.056840044, z: 0}
  m_LocalScale: {x: 1, y: 1, z: 1}
  m_Children:
  - {fileID: 486376}
  m_Father: {fileID: 410672}
  m_RootOrder: 0
  m_LocalEulerAnglesHint: {x: -0.0004, y: -0.0187, z: -1.6194999}
--- !u!4 &475192
Transform:
  m_ObjectHideFlags: 1
  m_CorrespondingSourceObject: {fileID: 0}
  m_PrefabInternal: {fileID: 100100000}
  m_GameObject: {fileID: 141260}
  m_LocalRotation: {x: -0.0000003657603, y: -0.00001797939, z: -0.01703954, w: 0.99985486}
  m_LocalPosition: {x: 0.00087013666, y: 0.053210225, z: 5.684342e-16}
  m_LocalScale: {x: 1, y: 1, z: 1}
  m_Children:
  - {fileID: 469894}
  m_Father: {fileID: 427256}
  m_RootOrder: 0
  m_LocalEulerAnglesHint: {x: -0.0001, y: -0.0021, z: -1.9526}
--- !u!4 &477230
Transform:
  m_ObjectHideFlags: 1
  m_CorrespondingSourceObject: {fileID: 0}
  m_PrefabInternal: {fileID: 100100000}
  m_GameObject: {fileID: 111202}
  m_LocalRotation: {x: 0.21726622, y: 0.05818938, z: 0.2855961, w: 0.9315816}
  m_LocalPosition: {x: -0.05348584, y: 0.07651462, z: 0.028322008}
  m_LocalScale: {x: 1, y: 1, z: 1}
  m_Children:
  - {fileID: 490846}
  m_Father: {fileID: 493804}
  m_RootOrder: 4
  m_LocalEulerAnglesHint: {x: 21.812199, y: 14.504, z: 36.897198}
--- !u!4 &477456
Transform:
  m_ObjectHideFlags: 1
  m_CorrespondingSourceObject: {fileID: 0}
  m_PrefabInternal: {fileID: 100100000}
  m_GameObject: {fileID: 183422}
  m_LocalRotation: {x: 0, y: 0, z: 0, w: 1}
  m_LocalPosition: {x: 0, y: 0, z: 0}
  m_LocalScale: {x: 1, y: 1, z: 1}
  m_Children: []
  m_Father: {fileID: 442198}
  m_RootOrder: 7
  m_LocalEulerAnglesHint: {x: 0, y: 0, z: 0}
--- !u!4 &477630
Transform:
  m_ObjectHideFlags: 1
  m_CorrespondingSourceObject: {fileID: 0}
  m_PrefabInternal: {fileID: 100100000}
  m_GameObject: {fileID: 159524}
  m_LocalRotation: {x: -0.0000002598464, y: 0.000012909619, z: 0.0026940715, w: 0.99999636}
  m_LocalPosition: {x: -0.000088916226, y: 0.056133293, z: 5.684342e-16}
  m_LocalScale: {x: 1, y: 1, z: 1}
  m_Children:
  - {fileID: 414568}
  m_Father: {fileID: 413572}
  m_RootOrder: 0
  m_LocalEulerAnglesHint: {x: 0, y: 0.0015, z: 0.3087}
--- !u!4 &477844
Transform:
  m_ObjectHideFlags: 1
  m_CorrespondingSourceObject: {fileID: 0}
  m_PrefabInternal: {fileID: 100100000}
  m_GameObject: {fileID: 116774}
  m_LocalRotation: {x: -0.000007176749, y: 0.00064642495, z: -0.024446845, w: 0.9997009}
  m_LocalPosition: {x: 0.00084674475, y: 0.060690634, z: 0}
  m_LocalScale: {x: 1, y: 1, z: 1}
  m_Children:
  - {fileID: 423108}
  m_Father: {fileID: 485166}
  m_RootOrder: 0
  m_LocalEulerAnglesHint: {x: 0.0009999999, y: 0.074099995, z: -2.8016999}
--- !u!4 &481464
Transform:
  m_ObjectHideFlags: 1
  m_CorrespondingSourceObject: {fileID: 0}
  m_PrefabInternal: {fileID: 100100000}
  m_GameObject: {fileID: 146754}
  m_LocalRotation: {x: -0.00000008485392, y: -0.00005907196, z: -0.02288654, w: 0.9997381}
  m_LocalPosition: {x: 0.0010049429, y: 0.05836496, z: 0}
  m_LocalScale: {x: 1, y: 1, z: 1}
  m_Children:
  - {fileID: 410336}
  m_Father: {fileID: 489594}
  m_RootOrder: 0
  m_LocalEulerAnglesHint: {x: -0.0002, y: -0.0067999996, z: -2.6227999}
--- !u!4 &482384
Transform:
  m_ObjectHideFlags: 1
  m_CorrespondingSourceObject: {fileID: 0}
  m_PrefabInternal: {fileID: 100100000}
  m_GameObject: {fileID: 181020}
  m_LocalRotation: {x: 0, y: 0, z: 0, w: 1}
  m_LocalPosition: {x: 0, y: 0, z: 0}
  m_LocalScale: {x: 1, y: 1, z: 1}
  m_Children: []
  m_Father: {fileID: 442198}
  m_RootOrder: 2
  m_LocalEulerAnglesHint: {x: 0, y: 0, z: 0}
--- !u!4 &485166
Transform:
  m_ObjectHideFlags: 1
  m_CorrespondingSourceObject: {fileID: 0}
  m_PrefabInternal: {fileID: 100100000}
  m_GameObject: {fileID: 155498}
  m_LocalRotation: {x: 0.000010785523, y: 0.00068345194, z: -0.0020446095, w: 0.9999977}
  m_LocalPosition: {x: 0.0010117055, y: 0.056079216, z: 0}
  m_LocalScale: {x: 1, y: 1, z: 1}
  m_Children:
  - {fileID: 477844}
  m_Father: {fileID: 474890}
  m_RootOrder: 0
  m_LocalEulerAnglesHint: {x: 0.0014, y: 0.0783, z: -0.23429999}
--- !u!4 &485818
Transform:
  m_ObjectHideFlags: 1
  m_CorrespondingSourceObject: {fileID: 0}
  m_PrefabInternal: {fileID: 100100000}
  m_GameObject: {fileID: 193038}
  m_LocalRotation: {x: 0.398661, y: 0.011194863, z: -0.00057828036, w: 0.9170299}
  m_LocalPosition: {x: 3.5527136e-17, y: 0.75968033, z: 0}
  m_LocalScale: {x: 1, y: 1, z: 1}
  m_Children:
  - {fileID: 451372}
  m_Father: {fileID: 449440}
  m_RootOrder: 0
  m_LocalEulerAnglesHint: {x: 46.9855, y: 1.686, z: 0.6606}
--- !u!4 &486376
Transform:
  m_ObjectHideFlags: 1
  m_CorrespondingSourceObject: {fileID: 0}
  m_PrefabInternal: {fileID: 100100000}
  m_GameObject: {fileID: 196984}
  m_LocalRotation: {x: -0.00000034385585, y: -0.00000085408567, z: 0.0019782088, w: 0.99999803}
  m_LocalPosition: {x: -0.00063853484, y: 0.05813555, z: 0}
  m_LocalScale: {x: 1, y: 1, z: 1}
  m_Children:
  - {fileID: 496556}
  m_Father: {fileID: 474934}
  m_RootOrder: 0
  m_LocalEulerAnglesHint: {x: 0, y: -0.0001, z: 0.2267}
--- !u!4 &489594
Transform:
  m_ObjectHideFlags: 1
  m_CorrespondingSourceObject: {fileID: 0}
  m_PrefabInternal: {fileID: 100100000}
  m_GameObject: {fileID: 117822}
  m_LocalRotation: {x: -0.005751329, y: 0.0010131453, z: 0.046876926, w: 0.9988836}
  m_LocalPosition: {x: 0.018371334, y: 0.200442, z: -0.002965269}
  m_LocalScale: {x: 1, y: 1, z: 1}
  m_Children:
  - {fileID: 481464}
  m_Father: {fileID: 493804}
  m_RootOrder: 3
  m_LocalEulerAnglesHint: {x: -0.6638, y: 0.085099995, z: 5.3733}
--- !u!4 &490280
Transform:
  m_ObjectHideFlags: 1
  m_CorrespondingSourceObject: {fileID: 0}
  m_PrefabInternal: {fileID: 100100000}
  m_GameObject: {fileID: 118932}
  m_LocalRotation: {x: -0.00000092038704, y: -0.00023711332, z: 0.003563183, w: 0.9999936}
  m_LocalPosition: {x: -0.00001581292, y: 0.035030395, z: 0}
  m_LocalScale: {x: 1, y: 1, z: 1}
  m_Children:
  - {fileID: 422624}
  m_Father: {fileID: 418796}
  m_RootOrder: 0
  m_LocalEulerAnglesHint: {x: 0, y: -0.027199998, z: 0.40829998}
--- !u!4 &490846
Transform:
  m_ObjectHideFlags: 1
  m_CorrespondingSourceObject: {fileID: 0}
  m_PrefabInternal: {fileID: 100100000}
  m_GameObject: {fileID: 170742}
  m_LocalRotation: {x: 0.000005326845, y: 0.0002940432, z: 0.015709365, w: 0.99987656}
  m_LocalPosition: {x: 0.00009845636, y: 0.08089013, z: 5.684342e-16}
  m_LocalScale: {x: 1, y: 1, z: 1}
  m_Children:
  - {fileID: 468176}
  m_Father: {fileID: 477230}
  m_RootOrder: 0
  m_LocalEulerAnglesHint: {x: 0.0001, y: 0.0337, z: 1.8002}
--- !u!4 &491802
Transform:
  m_ObjectHideFlags: 1
  m_CorrespondingSourceObject: {fileID: 0}
  m_PrefabInternal: {fileID: 100100000}
  m_GameObject: {fileID: 114206}
  m_LocalRotation: {x: 0, y: 0, z: 0, w: 1}
  m_LocalPosition: {x: -0, y: 0.18597677, z: 0}
  m_LocalScale: {x: 1, y: 1, z: 1}
  m_Children: []
  m_Father: {fileID: 461428}
  m_RootOrder: 0
  m_LocalEulerAnglesHint: {x: 0, y: 0, z: 0}
--- !u!4 &493804
Transform:
  m_ObjectHideFlags: 1
  m_CorrespondingSourceObject: {fileID: 0}
  m_PrefabInternal: {fileID: 100100000}
  m_GameObject: {fileID: 149958}
  m_LocalRotation: {x: 0.007974438, y: -0.05901673, z: -0.03787683, w: 0.9975063}
  m_LocalPosition: {x: -0, y: 0.41712442, z: -5.684342e-16}
  m_LocalScale: {x: 1, y: 1, z: 1}
  m_Children:
  - {fileID: 413572}
  - {fileID: 474890}
  - {fileID: 498650}
  - {fileID: 489594}
  - {fileID: 477230}
  m_Father: {fileID: 416436}
  m_RootOrder: 0
  m_LocalEulerAnglesHint: {x: 0.6554, y: -6.7969, z: -4.3880997}
--- !u!4 &494450
Transform:
  m_ObjectHideFlags: 1
  m_CorrespondingSourceObject: {fileID: 0}
  m_PrefabInternal: {fileID: 100100000}
  m_GameObject: {fileID: 108252}
  m_LocalRotation: {x: 0.41454646, y: -0.028369572, z: 0.010617178, w: 0.9095239}
  m_LocalPosition: {x: 3.5527136e-17, y: 0.7607788, z: -8.881784e-18}
  m_LocalScale: {x: 1, y: 1, z: 1}
  m_Children:
  - {fileID: 461428}
  m_Father: {fileID: 413944}
  m_RootOrder: 0
  m_LocalEulerAnglesHint: {x: 48.9976, y: -3.7405999, z: -0.3674}
--- !u!4 &495212
Transform:
  m_ObjectHideFlags: 1
  m_CorrespondingSourceObject: {fileID: 0}
  m_PrefabInternal: {fileID: 100100000}
  m_GameObject: {fileID: 192756}
  m_LocalRotation: {x: -0.004891568, y: 0.0000039020774, z: -0.00040422747, w: 0.99998796}
  m_LocalPosition: {x: 0.0013310674, y: 0.17533994, z: -0.015138443}
  m_LocalScale: {x: 1, y: 1, z: 1}
  m_Children:
  - {fileID: 431314}
  m_Father: {fileID: 459226}
  m_RootOrder: 2
  m_LocalEulerAnglesHint: {x: -0.56049997, y: 0.0007, z: -0.0464}
--- !u!4 &496556
Transform:
  m_ObjectHideFlags: 1
  m_CorrespondingSourceObject: {fileID: 0}
  m_PrefabInternal: {fileID: 100100000}
  m_GameObject: {fileID: 151402}
  m_LocalRotation: {x: 0, y: 0, z: 0, w: 1}
  m_LocalPosition: {x: -0.00034389767, y: 0.04890143, z: 5.684342e-16}
  m_LocalScale: {x: 1, y: 1, z: 1}
  m_Children: []
  m_Father: {fileID: 486376}
  m_RootOrder: 0
  m_LocalEulerAnglesHint: {x: 0, y: 0, z: 0}
--- !u!4 &498650
Transform:
  m_ObjectHideFlags: 1
  m_CorrespondingSourceObject: {fileID: 0}
  m_PrefabInternal: {fileID: 100100000}
  m_GameObject: {fileID: 179792}
  m_LocalRotation: {x: -0.0056977253, y: -0.00064140686, z: 0.036436103, w: 0.99931955}
  m_LocalPosition: {x: 0.05861753, y: 0.1768304, z: 0.0038954264}
  m_LocalScale: {x: 1, y: 1, z: 1}
  m_Children:
  - {fileID: 418796}
  m_Father: {fileID: 493804}
  m_RootOrder: 2
  m_LocalEulerAnglesHint: {x: -0.6498, y: -0.0973, z: 4.1768}
--- !u!111 &11172230
Animation:
  m_ObjectHideFlags: 1
  m_CorrespondingSourceObject: {fileID: 0}
  m_PrefabInternal: {fileID: 100100000}
  m_GameObject: {fileID: 118418}
  m_Enabled: 1
  serializedVersion: 3
  m_Animation: {fileID: 7400000, guid: 8d99e04d2f1e14202b292750dd504ef1, type: 3}
  m_Animations:
  - {fileID: 7400000, guid: 79eb7bd767dbf4141afa7c5af17b08a8, type: 3}
  - {fileID: 7400000, guid: 8e937ab173ff02f4db6545f3c276202f, type: 3}
  - {fileID: 7400000, guid: b955551abdf560446b2d6c5adf7b3dc5, type: 3}
  - {fileID: 7400000, guid: 25adc013f432bf948891afb2d89e066c, type: 3}
  - {fileID: 7400000, guid: 0d9ea0f99e5488b429cefb737c74a14a, type: 3}
  - {fileID: 7400000, guid: 2e1cc2b4e857a764a84174718af50873, type: 3}
  - {fileID: 7400000, guid: 0bf879ad199ee504eb3b8fb6ccfc03d5, type: 3}
  - {fileID: 7400000, guid: 3093119225087124288afbb7b7cbbe04, type: 3}
  - {fileID: 7400000, guid: ed769213b26d7ea4aa25d7bbe7b63f10, type: 3}
  - {fileID: 7400000, guid: d9680bdd25f11fd4e9108afdb323e037, type: 3}
  - {fileID: 7400000, guid: c102cab26d45d64469d2d9337509e374, type: 3}
  - {fileID: 7400000, guid: c776c92a600f01a4dacf0704b42c57e6, type: 3}
  - {fileID: 7400000, guid: 0859c7430be99634cbda5661cf68507c, type: 3}
  - {fileID: 7400000, guid: d187c45af7a768744b0246c7bde7b76e, type: 3}
  - {fileID: 7400000, guid: 5dff154b3299d1140a8a7ca1dddf8a01, type: 3}
  - {fileID: 7400000, guid: 1f4c625922a726f46b51d393ed9a028b, type: 3}
  - {fileID: 7400000, guid: b06d26fcfbddfd84bbb151007347b915, type: 3}
  - {fileID: 7400000, guid: a151ccca9adf28845bf231f6e829669a, type: 3}
  - {fileID: 7400000, guid: 7d477d502d74d8a47bccb9a3d3f1042f, type: 3}
  - {fileID: 7400000, guid: c998c5ae20cb034449fc08fb63d888ca, type: 3}
  - {fileID: 7400000, guid: 117e9c008ec7361428564e93fa79f0cd, type: 3}
  - {fileID: 7400000, guid: 8d99e04d2f1e14202b292750dd504ef1, type: 3}
  - {fileID: 7400000, guid: d4558187b478fd348b621513b411c227, type: 3}
  - {fileID: 7400000, guid: 9059171338dface488c7fc408bb3bb31, type: 3}
  - {fileID: 7400000, guid: 0c51cc3fdeaaaad46b16a4d3a609a055, type: 3}
  - {fileID: 7400000, guid: 8d99e04d2f1e14202b292750dd504ef1, type: 3}
  - {fileID: 7400000, guid: 8d99e04d2f1e14202b292750dd504ef1, type: 3}
  - {fileID: 7400000, guid: 8d99e04d2f1e14202b292750dd504ef1, type: 3}
  - {fileID: 7400000, guid: 8d99e04d2f1e14202b292750dd504ef1, type: 3}
  - {fileID: 7400000, guid: 8d99e04d2f1e14202b292750dd504ef1, type: 3}
  m_WrapMode: 0
  m_PlayAutomatically: 1
  m_AnimatePhysics: 0
  m_CullingType: 0
--- !u!114 &11452462
MonoBehaviour:
  m_ObjectHideFlags: 1
  m_CorrespondingSourceObject: {fileID: 0}
  m_PrefabInternal: {fileID: 100100000}
  m_GameObject: {fileID: 118418}
  m_Enabled: 1
  m_EditorHideFlags: 0
  m_Script: {fileID: 11500000, guid: fe014fe2d0ac4ca418e82dbd785e084c, type: 3}
  m_Name: 
  m_EditorClassIdentifier: 
  Id: 0
  InEventRadius: 0
  IsInEvent: 0
  IsEventActor: 0
  MyActingEvent: {fileID: 0}
  FirstAction: 0
  Animator: {fileID: 0}
  MyEvent: {fileID: 0}
  MovementController: {fileID: 0}
  CurrentActionPosition: {x: -1, y: -1, z: -1}
--- !u!137 &13700206
SkinnedMeshRenderer:
  m_ObjectHideFlags: 1
  m_CorrespondingSourceObject: {fileID: 0}
  m_PrefabInternal: {fileID: 100100000}
  m_GameObject: {fileID: 183422}
  m_Enabled: 1
  m_CastShadows: 1
  m_ReceiveShadows: 1
  m_DynamicOccludee: 1
  m_MotionVectors: 1
  m_LightProbeUsage: 1
  m_ReflectionProbeUsage: 1
  m_RenderingLayerMask: 4294967295
  m_Materials:
  - {fileID: 2100000, guid: 477fe2d83c96e264ba85b8e5adccc1e2, type: 2}
  m_StaticBatchInfo:
    firstSubMesh: 0
    subMeshCount: 0
  m_StaticBatchRoot: {fileID: 0}
  m_ProbeAnchor: {fileID: 0}
  m_LightProbeVolumeOverride: {fileID: 0}
  m_ScaleInLightmap: 1
  m_PreserveUVs: 0
  m_IgnoreNormalsForChartDetection: 0
  m_ImportantGI: 0
  m_StitchLightmapSeams: 0
  m_SelectedEditorRenderState: 3
  m_MinimumChartSize: 4
  m_AutoUVMaxDistance: 0.5
  m_AutoUVMaxAngle: 89
  m_LightmapParameters: {fileID: 0}
  m_SortingLayerID: 0
  m_SortingLayer: 0
  m_SortingOrder: 0
  serializedVersion: 2
  m_Quality: 0
  m_UpdateWhenOffscreen: 0
  m_SkinnedMotionVectors: 1
  m_Mesh: {fileID: 4300012, guid: abcc2b4087a568449b135a1e9cbd6b3c, type: 3}
  m_Bones:
  - {fileID: 431314}
  - {fileID: 416318}
  - {fileID: 454652}
  - {fileID: 460132}
  - {fileID: 444304}
  - {fileID: 427496}
  - {fileID: 463010}
  - {fileID: 495212}
  - {fileID: 465238}
  - {fileID: 459226}
  - {fileID: 416436}
  - {fileID: 428896}
  - {fileID: 406502}
  - {fileID: 413944}
  - {fileID: 449440}
  m_BlendShapeWeights: []
  m_RootBone: {fileID: 459226}
  m_AABB:
    m_Center: {x: -0.010367632, y: 0.3721369, z: 0.017619282}
    m_Extent: {x: 0.36995283, y: 0.66455, z: 0.36857843}
  m_DirtyAABB: 0
--- !u!137 &13702376
SkinnedMeshRenderer:
  m_ObjectHideFlags: 1
  m_CorrespondingSourceObject: {fileID: 0}
  m_PrefabInternal: {fileID: 100100000}
  m_GameObject: {fileID: 145102}
  m_Enabled: 1
  m_CastShadows: 1
  m_ReceiveShadows: 1
  m_DynamicOccludee: 1
  m_MotionVectors: 1
  m_LightProbeUsage: 1
  m_ReflectionProbeUsage: 1
  m_RenderingLayerMask: 4294967295
  m_Materials:
  - {fileID: 2100000, guid: 4720fda6d17e6f045a1f5d54cfe105d2, type: 2}
  m_StaticBatchInfo:
    firstSubMesh: 0
    subMeshCount: 0
  m_StaticBatchRoot: {fileID: 0}
  m_ProbeAnchor: {fileID: 0}
  m_LightProbeVolumeOverride: {fileID: 0}
  m_ScaleInLightmap: 1
  m_PreserveUVs: 0
  m_IgnoreNormalsForChartDetection: 0
  m_ImportantGI: 0
  m_StitchLightmapSeams: 0
  m_SelectedEditorRenderState: 3
  m_MinimumChartSize: 4
  m_AutoUVMaxDistance: 0.5
  m_AutoUVMaxAngle: 89
  m_LightmapParameters: {fileID: 0}
  m_SortingLayerID: 0
  m_SortingLayer: 0
  m_SortingOrder: 0
  serializedVersion: 2
  m_Quality: 0
  m_UpdateWhenOffscreen: 0
  m_SkinnedMotionVectors: 1
  m_Mesh: {fileID: 4300004, guid: abcc2b4087a568449b135a1e9cbd6b3c, type: 3}
  m_Bones:
  - {fileID: 459226}
  - {fileID: 495212}
  - {fileID: 428896}
  - {fileID: 413944}
  - {fileID: 494450}
  - {fileID: 461428}
  - {fileID: 491802}
  - {fileID: 451372}
  - {fileID: 416318}
  - {fileID: 427496}
  - {fileID: 463010}
  - {fileID: 416436}
  - {fileID: 493804}
  - {fileID: 477230}
  - {fileID: 474890}
  - {fileID: 413572}
  - {fileID: 489594}
  - {fileID: 490846}
  - {fileID: 468176}
  - {fileID: 498650}
  - {fileID: 418796}
  - {fileID: 490280}
  - {fileID: 481464}
  - {fileID: 410336}
  - {fileID: 485166}
  - {fileID: 477844}
  - {fileID: 477630}
  - {fileID: 414568}
  - {fileID: 426806}
  - {fileID: 432420}
  - {fileID: 423108}
  - {fileID: 422624}
  - {fileID: 434996}
  - {fileID: 406502}
  - {fileID: 449440}
  - {fileID: 485818}
  - {fileID: 409090}
  - {fileID: 460132}
  - {fileID: 444304}
  - {fileID: 465238}
  - {fileID: 439936}
  - {fileID: 422674}
  - {fileID: 428950}
  - {fileID: 401014}
  - {fileID: 410672}
  - {fileID: 437834}
  - {fileID: 433860}
  - {fileID: 427256}
  - {fileID: 475192}
  - {fileID: 469894}
  - {fileID: 404624}
  - {fileID: 454900}
  - {fileID: 432640}
  - {fileID: 450594}
  - {fileID: 474934}
  - {fileID: 486376}
  - {fileID: 443008}
  - {fileID: 496556}
  - {fileID: 400726}
  - {fileID: 458424}
  - {fileID: 405592}
  - {fileID: 431314}
  - {fileID: 454652}
  - {fileID: 413732}
  m_BlendShapeWeights: []
  m_RootBone: {fileID: 459226}
  m_AABB:
    m_Center: {x: 0.007176399, y: -0.27033472, z: 0.050622106}
    m_Extent: {x: 1.6771194, y: 1.7826314, z: 0.6783185}
  m_DirtyAABB: 0
--- !u!137 &13714040
SkinnedMeshRenderer:
  m_ObjectHideFlags: 1
  m_CorrespondingSourceObject: {fileID: 0}
  m_PrefabInternal: {fileID: 100100000}
  m_GameObject: {fileID: 111100}
  m_Enabled: 1
  m_CastShadows: 1
  m_ReceiveShadows: 1
  m_DynamicOccludee: 1
  m_MotionVectors: 1
  m_LightProbeUsage: 1
  m_ReflectionProbeUsage: 1
  m_RenderingLayerMask: 4294967295
  m_Materials:
  - {fileID: 2100000, guid: b8aa981db593f294dbce130a5f596726, type: 2}
  m_StaticBatchInfo:
    firstSubMesh: 0
    subMeshCount: 0
  m_StaticBatchRoot: {fileID: 0}
  m_ProbeAnchor: {fileID: 0}
  m_LightProbeVolumeOverride: {fileID: 0}
  m_ScaleInLightmap: 1
  m_PreserveUVs: 0
  m_IgnoreNormalsForChartDetection: 0
  m_ImportantGI: 0
  m_StitchLightmapSeams: 0
  m_SelectedEditorRenderState: 3
  m_MinimumChartSize: 4
  m_AutoUVMaxDistance: 0.5
  m_AutoUVMaxAngle: 89
  m_LightmapParameters: {fileID: 0}
  m_SortingLayerID: 0
  m_SortingLayer: 0
  m_SortingOrder: 0
  serializedVersion: 2
  m_Quality: 0
  m_UpdateWhenOffscreen: 0
  m_SkinnedMotionVectors: 1
  m_Mesh: {fileID: 4300008, guid: abcc2b4087a568449b135a1e9cbd6b3c, type: 3}
  m_Bones:
  - {fileID: 449440}
  - {fileID: 485818}
  - {fileID: 451372}
  - {fileID: 409090}
  - {fileID: 413944}
  - {fileID: 494450}
  - {fileID: 461428}
  - {fileID: 491802}
  m_BlendShapeWeights: []
  m_RootBone: {fileID: 413944}
  m_AABB:
    m_Center: {x: -0.17932484, y: 0.95652276, z: 0.1707159}
    m_Extent: {x: 0.30176973, y: 0.2638678, z: 0.26278806}
  m_DirtyAABB: 0
--- !u!137 &13745364
SkinnedMeshRenderer:
  m_ObjectHideFlags: 1
  m_CorrespondingSourceObject: {fileID: 0}
  m_PrefabInternal: {fileID: 100100000}
  m_GameObject: {fileID: 181020}
  m_Enabled: 1
  m_CastShadows: 1
  m_ReceiveShadows: 1
  m_DynamicOccludee: 1
  m_MotionVectors: 1
  m_LightProbeUsage: 1
  m_ReflectionProbeUsage: 1
  m_RenderingLayerMask: 4294967295
  m_Materials:
  - {fileID: 2100000, guid: 4720fda6d17e6f045a1f5d54cfe105d2, type: 2}
  m_StaticBatchInfo:
    firstSubMesh: 0
    subMeshCount: 0
  m_StaticBatchRoot: {fileID: 0}
  m_ProbeAnchor: {fileID: 0}
  m_LightProbeVolumeOverride: {fileID: 0}
  m_ScaleInLightmap: 1
  m_PreserveUVs: 0
  m_IgnoreNormalsForChartDetection: 0
  m_ImportantGI: 0
  m_StitchLightmapSeams: 0
  m_SelectedEditorRenderState: 3
  m_MinimumChartSize: 4
  m_AutoUVMaxDistance: 0.5
  m_AutoUVMaxAngle: 89
  m_LightmapParameters: {fileID: 0}
  m_SortingLayerID: 0
  m_SortingLayer: 0
  m_SortingOrder: 0
  serializedVersion: 2
  m_Quality: 0
  m_UpdateWhenOffscreen: 0
  m_SkinnedMotionVectors: 1
  m_Mesh: {fileID: 4300000, guid: abcc2b4087a568449b135a1e9cbd6b3c, type: 3}
  m_Bones:
  - {fileID: 413732}
  m_BlendShapeWeights: []
  m_RootBone: {fileID: 413732}
  m_AABB:
    m_Center: {x: 0.0008606985, y: 0.13201454, z: 0.1974594}
    m_Extent: {x: 0.10604605, y: 0.019799713, z: 0.023892805}
  m_DirtyAABB: 0
--- !u!137 &13773064
SkinnedMeshRenderer:
  m_ObjectHideFlags: 1
  m_CorrespondingSourceObject: {fileID: 0}
  m_PrefabInternal: {fileID: 100100000}
  m_GameObject: {fileID: 177336}
  m_Enabled: 1
  m_CastShadows: 1
  m_ReceiveShadows: 1
  m_DynamicOccludee: 1
  m_MotionVectors: 1
  m_LightProbeUsage: 1
  m_ReflectionProbeUsage: 1
  m_RenderingLayerMask: 4294967295
  m_Materials:
  - {fileID: 2100000, guid: 4720fda6d17e6f045a1f5d54cfe105d2, type: 2}
  m_StaticBatchInfo:
    firstSubMesh: 0
    subMeshCount: 0
  m_StaticBatchRoot: {fileID: 0}
  m_ProbeAnchor: {fileID: 0}
  m_LightProbeVolumeOverride: {fileID: 0}
  m_ScaleInLightmap: 1
  m_PreserveUVs: 0
  m_IgnoreNormalsForChartDetection: 0
  m_ImportantGI: 0
  m_StitchLightmapSeams: 0
  m_SelectedEditorRenderState: 3
  m_MinimumChartSize: 4
  m_AutoUVMaxDistance: 0.5
  m_AutoUVMaxAngle: 89
  m_LightmapParameters: {fileID: 0}
  m_SortingLayerID: 0
  m_SortingLayer: 0
  m_SortingOrder: 0
  serializedVersion: 2
  m_Quality: 0
  m_UpdateWhenOffscreen: 0
  m_SkinnedMotionVectors: 1
  m_Mesh: {fileID: 4300002, guid: abcc2b4087a568449b135a1e9cbd6b3c, type: 3}
  m_Bones:
  - {fileID: 413732}
  - {fileID: 449642}
  - {fileID: 423616}
  m_BlendShapeWeights: []
  m_RootBone: {fileID: 413732}
  m_AABB:
    m_Center: {x: 0.00076846033, y: 0.13824666, z: 0.16651222}
    m_Extent: {x: 0.087786295, y: 0.028867844, z: 0.031287037}
  m_DirtyAABB: 0
--- !u!137 &13780644
SkinnedMeshRenderer:
  m_ObjectHideFlags: 1
  m_CorrespondingSourceObject: {fileID: 0}
  m_PrefabInternal: {fileID: 100100000}
  m_GameObject: {fileID: 145900}
  m_Enabled: 1
  m_CastShadows: 1
  m_ReceiveShadows: 1
  m_DynamicOccludee: 1
  m_MotionVectors: 1
  m_LightProbeUsage: 1
  m_ReflectionProbeUsage: 1
  m_RenderingLayerMask: 4294967295
  m_Materials:
  - {fileID: 2100000, guid: 8defe68e79cf9e7498a1020120cdd648, type: 2}
  m_StaticBatchInfo:
    firstSubMesh: 0
    subMeshCount: 0
  m_StaticBatchRoot: {fileID: 0}
  m_ProbeAnchor: {fileID: 0}
  m_LightProbeVolumeOverride: {fileID: 0}
  m_ScaleInLightmap: 1
  m_PreserveUVs: 0
  m_IgnoreNormalsForChartDetection: 0
  m_ImportantGI: 0
  m_StitchLightmapSeams: 0
  m_SelectedEditorRenderState: 3
  m_MinimumChartSize: 4
  m_AutoUVMaxDistance: 0.5
  m_AutoUVMaxAngle: 89
  m_LightmapParameters: {fileID: 0}
  m_SortingLayerID: 0
  m_SortingLayer: 0
  m_SortingOrder: 0
  serializedVersion: 2
  m_Quality: 0
  m_UpdateWhenOffscreen: 0
  m_SkinnedMotionVectors: 1
  m_Mesh: {fileID: 4300006, guid: abcc2b4087a568449b135a1e9cbd6b3c, type: 3}
  m_Bones:
  - {fileID: 413732}
  - {fileID: 416318}
  - {fileID: 454652}
  m_BlendShapeWeights: []
  m_RootBone: {fileID: 416318}
  m_AABB:
    m_Center: {x: 0.019273877, y: 0.6644632, z: 0.066682406}
    m_Extent: {x: 0.20255789, y: 0.21946084, z: 0.24984783}
  m_DirtyAABB: 0
--- !u!137 &13781948
SkinnedMeshRenderer:
  m_ObjectHideFlags: 1
  m_CorrespondingSourceObject: {fileID: 0}
  m_PrefabInternal: {fileID: 100100000}
  m_GameObject: {fileID: 196524}
  m_Enabled: 1
  m_CastShadows: 1
  m_ReceiveShadows: 1
  m_DynamicOccludee: 1
  m_MotionVectors: 1
  m_LightProbeUsage: 1
  m_ReflectionProbeUsage: 1
  m_RenderingLayerMask: 4294967295
  m_Materials:
  - {fileID: 2100000, guid: 5aa59e0c489c888428cdd8b3b483d2be, type: 2}
  m_StaticBatchInfo:
    firstSubMesh: 0
    subMeshCount: 0
  m_StaticBatchRoot: {fileID: 0}
  m_ProbeAnchor: {fileID: 0}
  m_LightProbeVolumeOverride: {fileID: 0}
  m_ScaleInLightmap: 1
  m_PreserveUVs: 0
  m_IgnoreNormalsForChartDetection: 0
  m_ImportantGI: 0
  m_StitchLightmapSeams: 0
  m_SelectedEditorRenderState: 3
  m_MinimumChartSize: 4
  m_AutoUVMaxDistance: 0.5
  m_AutoUVMaxAngle: 89
  m_LightmapParameters: {fileID: 0}
  m_SortingLayerID: 0
  m_SortingLayer: 0
  m_SortingOrder: 0
  serializedVersion: 2
  m_Quality: 0
  m_UpdateWhenOffscreen: 0
  m_SkinnedMotionVectors: 1
  m_Mesh: {fileID: 4300010, guid: abcc2b4087a568449b135a1e9cbd6b3c, type: 3}
  m_Bones:
  - {fileID: 459226}
  - {fileID: 495212}
  - {fileID: 428896}
  - {fileID: 413944}
  - {fileID: 406502}
  - {fileID: 431314}
  - {fileID: 416318}
  - {fileID: 449440}
  m_BlendShapeWeights: []
  m_RootBone: {fileID: 459226}
  m_AABB:
    m_Center: {x: -0.0035984814, y: -0.20534806, z: -0.019457936}
    m_Extent: {x: 0.3650662, y: 0.277937, z: 0.26055387}
  m_DirtyAABB: 0
--- !u!1001 &100100000
Prefab:
  m_ObjectHideFlags: 1
  serializedVersion: 2
  m_Modification:
    m_TransformParent: {fileID: 0}
    m_Modifications: []
    m_RemovedComponents: []
  m_SourcePrefab: {fileID: 0}
  m_RootGameObject: {fileID: 118418}
  m_IsPrefabAsset: 1
